<?xml version="1.0" standalone="no"?>
<!DOCTYPE svg PUBLIC "-//W3C//DTD SVG 20010904//EN"
 "http://www.w3.org/TR/2001/REC-SVG-20010904/DTD/svg10.dtd">
<svg version="1.0" xmlns="http://www.w3.org/2000/svg"
 width="3000.000000pt" height="3000.000000pt" viewBox="0 0 3000.000000 3000.000000"
 preserveAspectRatio="xMidYMid meet">
<metadata>
Created by potrace 1.14, written by Peter Selinger 2001-2017
</metadata>
<g transform="translate(0.000000,3000.000000) scale(0.100000,-0.100000)"
fill="#000000" stroke="none">
<path d="M14880 26114 c-210 -57 -427 -188 -544 -330 -136 -164 -157 -221
-642 -1726 -164 -509 -202 -618 -216 -618 -10 0 -18 -7 -18 -15 0 -8 -4 -15
-10 -15 -5 0 -10 -6 -10 -13 0 -20 -46 -71 -58 -63 -5 3 -15 -1 -22 -9 -9 -11
-17 -12 -32 -4 -11 6 -30 8 -41 5 -21 -5 -130 24 -258 69 -166 59 -379 72
-558 35 -118 -24 -271 -97 -362 -173 -128 -107 -243 -287 -283 -444 -41 -158
-39 -382 4 -547 45 -172 102 -288 365 -746 105 -184 199 -353 208 -375 8 -22
23 -58 32 -80 10 -22 16 -40 14 -40 -1 0 4 -11 11 -25 8 -14 14 -27 15 -30 0
-7 23 -86 41 -142 16 -47 20 -170 12 -323 -4 -72 -35 -175 -302 -1000 -164
-506 -312 -947 -329 -980 -42 -81 -147 -184 -228 -224 -35 -17 -95 -38 -134
-46 -76 -16 -280 -20 -289 -6 -3 5 -23 12 -43 16 -58 10 -123 34 -140 50 -8 8
-20 15 -28 15 -7 0 -28 15 -46 33 -19 18 -45 42 -59 52 -66 52 -142 164 -327
485 -110 190 -352 608 -537 930 -356 615 -463 787 -568 910 -140 163 -315 276
-503 326 -98 26 -391 27 -484 1 -86 -24 -170 -58 -239 -98 -83 -49 -241 -209
-289 -294 -141 -245 -162 -565 -56 -870 19 -55 88 -203 153 -330 131 -257 156
-330 124 -366 -43 -47 -166 4 -585 244 -301 171 -362 202 -494 252 -146 55
-256 75 -411 75 -194 0 -308 -25 -454 -102 -160 -83 -279 -206 -361 -374 -74
-151 -93 -253 -84 -454 7 -138 10 -327 6 -387 -1 -11 -8 -24 -16 -27 -8 -3
-15 -12 -15 -21 0 -8 -9 -15 -20 -15 -11 0 -20 -4 -20 -9 0 -5 -16 -12 -35
-15 -19 -4 -35 -11 -35 -16 0 -6 -170 -10 -447 -10 -1000 -1 -1276 -28 -1521
-146 -177 -86 -310 -246 -397 -479 -32 -85 -38 -142 -25 -237 31 -233 176
-524 345 -692 47 -47 248 -200 592 -448 573 -415 708 -506 1018 -688 254 -149
462 -285 570 -373 44 -35 141 -127 215 -204 127 -130 158 -155 535 -428 487
-352 636 -453 920 -619 252 -148 479 -294 580 -373 39 -31 140 -126 225 -213
134 -136 183 -177 368 -309 172 -124 210 -156 201 -167 -7 -9 -8 -19 -2 -26 5
-7 9 -17 9 -23 -2 -18 -46 -55 -66 -55 -11 0 -37 -7 -58 -16 -84 -35 -306 -44
-1067 -44 -401 0 -804 -5 -894 -10 -442 -27 -679 -113 -881 -320 -165 -169
-240 -363 -240 -625 0 -276 85 -485 268 -656 88 -82 153 -124 270 -175 157
-68 326 -97 662 -114 309 -16 390 -36 390 -97 0 -50 -74 -101 -565 -383 -519
-298 -678 -397 -798 -497 -267 -223 -391 -519 -357 -850 30 -290 162 -508 399
-661 220 -143 559 -173 856 -77 130 42 276 118 714 369 475 273 599 337 671
344 60 6 80 -8 80 -54 0 -50 -33 -128 -150 -359 -116 -227 -170 -373 -191
-514 -17 -119 -7 -335 21 -431 36 -125 111 -299 146 -341 8 -8 14 -19 14 -22
0 -4 15 -28 34 -54 18 -27 36 -57 40 -68 3 -11 20 -35 36 -54 17 -18 30 -39
30 -45 0 -6 10 -24 22 -39 22 -27 24 -33 32 -100 2 -21 12 -47 21 -57 16 -18
15 -24 -23 -102 -22 -46 -93 -159 -157 -252 -213 -307 -241 -379 -295 -755
-24 -167 -83 -459 -110 -546 -10 -33 -50 -150 -90 -259 -88 -247 -102 -310
-103 -456 -1 -134 15 -208 70 -320 46 -94 186 -239 278 -287 106 -55 162 -66
309 -60 152 6 260 33 391 97 153 75 252 175 346 352 62 115 158 226 252 290
90 61 220 119 442 196 267 93 316 113 478 194 158 80 424 254 540 353 168 144
279 319 368 584 48 142 72 183 151 257 103 96 225 150 462 204 78 18 100 20
106 10 4 -7 25 -14 46 -15 75 -4 76 -5 71 -19 -7 -16 16 -40 27 -29 4 4 2 -5
-4 -21 -6 -16 -7 -33 -2 -38 10 -10 -4 -181 -23 -276 -33 -158 -29 -333 10
-487 23 -91 107 -251 174 -331 103 -124 251 -220 416 -270 83 -25 104 -28 265
-28 207 -1 262 10 416 84 225 108 373 268 591 635 52 88 106 175 119 193 34
43 78 66 104 52 57 -31 69 -128 70 -580 2 -870 27 -1106 145 -1345 163 -330
490 -515 870 -492 249 16 424 94 590 262 155 158 239 350 281 645 13 91 17
230 21 667 3 314 9 553 14 553 5 0 9 12 9 28 1 47 52 92 105 92 68 0 189 -112
297 -275 37 -55 101 -139 143 -187 41 -48 75 -92 75 -96 0 -5 11 -19 25 -32
13 -12 22 -26 20 -31 -3 -4 1 -13 8 -21 17 -17 35 -72 39 -118 6 -87 -14 -174
-87 -359 -130 -332 -241 -682 -289 -909 -99 -470 -25 -844 216 -1098 123 -129
265 -200 452 -225 152 -20 285 4 421 74 84 44 140 95 360 328 62 66 129 125
175 155 101 66 723 375 940 467 386 164 845 331 1146 415 360 102 511 123 889
122 154 0 321 2 370 4 50 2 119 0 155 -5 120 -17 135 -18 159 -5 20 11 33 11
76 0 139 -37 311 -34 417 6 134 50 288 191 352 321 99 203 98 403 -4 689 -105
294 -140 409 -174 575 -30 146 -33 172 -21 185 8 9 16 41 19 71 4 49 30 108
63 142 32 32 109 97 116 97 4 0 13 5 20 11 22 20 91 58 172 96 232 108 338
175 437 275 184 187 292 435 305 705 10 208 -17 316 -138 553 -108 210 -288
445 -413 537 -140 104 -249 136 -486 140 l-175 2 -70 36 c-44 23 -79 49 -95
71 -14 19 -30 41 -36 47 -19 21 -210 399 -232 460 -29 77 -29 132 0 148 57 31
179 -27 721 -340 649 -375 774 -424 1077 -424 211 0 359 39 507 135 143 94
236 200 310 356 66 137 86 248 80 432 -6 165 -21 235 -77 356 -53 116 -111
197 -210 294 -143 142 -220 192 -886 576 -459 264 -497 288 -526 331 -26 40
-22 61 14 83 49 29 111 39 326 50 438 23 640 68 830 186 281 176 433 484 408
829 -25 331 -189 585 -474 734 -146 75 -298 116 -532 141 -63 7 -452 15 -970
20 -886 9 -917 10 -1013 49 -16 6 -42 11 -58 11 -18 0 -28 5 -26 12 1 7 -8 14
-20 16 -25 4 -30 17 -10 25 8 4 8 6 -2 6 -11 1 -10 5 5 16 18 14 18 15 1 26
-15 9 10 31 185 157 174 124 225 168 358 302 85 87 187 182 225 213 101 79
328 225 580 373 284 166 433 267 920 619 380 275 407 297 540 433 77 79 174
171 215 205 102 82 312 219 565 367 311 183 447 274 1019 688 549 397 618 455
714 595 144 209 249 521 226 675 -8 56 -40 144 -84 232 -82 164 -199 285 -343
354 -246 120 -517 145 -1559 146 -319 0 -488 3 -488 10 0 6 -5 10 -11 10 -23
0 -99 42 -93 51 3 6 -3 13 -13 15 -15 4 -18 12 -15 35 2 16 0 29 -5 29 -10 0
-9 109 2 335 6 112 4 158 -10 230 -60 324 -289 575 -612 671 -119 35 -324 44
-463 20 -197 -35 -332 -95 -755 -337 -317 -180 -443 -241 -512 -247 -49 -4
-53 -3 -65 22 -20 44 1 100 152 401 190 379 217 477 207 750 -8 209 -40 317
-142 470 -124 186 -311 311 -538 361 -96 21 -317 22 -413 1 -244 -54 -443
-193 -619 -432 -74 -100 -137 -202 -325 -530 -878 -1528 -936 -1625 -1030
-1700 -14 -10 -40 -34 -59 -52 -18 -18 -39 -33 -46 -33 -8 0 -20 -7 -28 -15
-17 -16 -82 -40 -140 -50 -20 -4 -40 -11 -43 -16 -8 -14 -121 -10 -199 6 -38
8 -99 29 -134 47 -81 39 -184 141 -228 223 -17 33 -170 488 -343 1025 -339
1048 -325 996 -323 1224 0 60 8 123 18 160 34 122 54 184 78 237 14 30 35 76
47 104 12 27 88 162 168 300 303 522 365 687 364 975 -1 141 -19 246 -63 360
-91 237 -319 440 -565 504 -157 41 -368 41 -519 0 -33 -8 -71 -18 -85 -20 -29
-5 -89 -16 -110 -20 -38 -9 -127 -7 -145 3 -11 6 -26 8 -33 6 -8 -3 -16 4 -19
16 -3 12 -8 21 -12 21 -4 0 -15 16 -25 35 -10 19 -25 35 -34 37 -10 2 -71 175
-199 573 -429 1331 -465 1436 -552 1593 -85 153 -221 276 -406 366 -204 100
-326 124 -455 90z m107 -274 c-4 -88 -12 -119 -111 -417 l-107 -323 -34 0 -33
0 64 198 c35 108 99 306 141 439 44 135 80 233 82 220 1 -12 1 -65 -2 -117z
m129 -1936 c69 -29 174 -146 174 -193 0 -11 5 -23 10 -26 7 -4 10 -638 10
-1868 0 -1024 3 -1878 6 -1899 8 -49 35 -56 59 -14 10 17 24 35 32 39 7 4 13
16 13 25 0 9 10 33 22 52 44 73 79 136 85 153 3 9 9 17 14 17 5 0 9 5 9 11 0
12 70 133 99 171 12 14 21 32 21 38 0 7 14 35 30 62 17 26 30 50 30 53 0 3 16
29 35 59 19 30 35 58 35 61 0 3 15 29 33 58 18 29 36 59 40 67 4 8 13 24 19
34 36 56 78 126 78 130 0 3 15 29 33 58 18 29 42 70 52 91 11 21 27 46 35 55
8 9 25 37 37 62 26 53 65 120 99 172 13 21 24 40 24 43 0 7 57 102 91 151 15
22 31 53 35 67 3 15 14 33 23 40 9 6 25 28 34 47 20 40 39 73 48 80 3 3 13 23
23 45 11 22 22 42 25 45 4 3 20 31 36 62 17 32 33 58 38 58 4 0 7 7 7 15 0 8
3 15 8 15 4 0 16 20 27 45 11 25 22 45 25 45 3 0 11 12 18 28 6 15 27 54 47
87 19 33 41 71 47 85 7 14 15 27 18 30 3 3 10 14 16 25 30 56 50 91 54 95 3 3
10 14 16 25 30 56 50 91 54 95 5 5 30 49 57 102 20 39 102 108 135 115 16 3
31 10 34 14 7 12 171 11 179 0 3 -5 18 -12 34 -16 40 -9 131 -104 154 -162 15
-39 18 -64 14 -133 -3 -48 -10 -86 -16 -88 -6 -2 -11 -12 -11 -23 0 -10 -3
-19 -7 -19 -5 0 -13 -10 -19 -23 -17 -36 -77 -142 -83 -147 -3 -3 -19 -30 -35
-60 -16 -30 -31 -57 -35 -60 -6 -5 -26 -40 -83 -147 -18 -35 -36 -63 -40 -63
-5 0 -8 -5 -8 -10 0 -6 -12 -29 -26 -52 -25 -39 -38 -61 -100 -175 -14 -27
-29 -52 -34 -58 -6 -9 -28 -48 -84 -150 -6 -11 -13 -22 -16 -25 -3 -3 -10 -14
-16 -25 -30 -56 -50 -91 -54 -95 -3 -3 -10 -14 -16 -25 -30 -56 -50 -91 -54
-95 -3 -3 -13 -21 -24 -40 -36 -68 -69 -125 -86 -150 -9 -14 -32 -56 -50 -95
-19 -38 -39 -75 -46 -82 -6 -6 -23 -35 -38 -65 -29 -58 -48 -90 -57 -98 -3 -3
-13 -21 -22 -40 -19 -37 -39 -72 -47 -80 -5 -5 -16 -24 -81 -145 -17 -33 -35
-62 -38 -65 -4 -3 -18 -27 -31 -54 -14 -26 -31 -50 -37 -53 -7 -3 -13 -13 -13
-22 0 -9 -25 -58 -55 -110 -30 -51 -55 -95 -55 -97 0 -2 -15 -27 -33 -56 -18
-29 -41 -69 -50 -89 -9 -19 -28 -47 -42 -63 -14 -15 -25 -32 -25 -38 0 -10
-40 -88 -50 -98 -3 -3 -10 -14 -16 -25 -30 -56 -50 -91 -54 -95 -3 -3 -12 -18
-21 -35 -10 -16 -30 -54 -46 -83 -16 -29 -37 -62 -46 -73 -9 -10 -17 -24 -17
-29 0 -10 -29 -60 -40 -70 -3 -3 -14 -21 -23 -40 -10 -19 -26 -48 -36 -65 -10
-16 -24 -47 -31 -69 -14 -43 -39 -78 -52 -70 -4 3 -8 -2 -8 -10 0 -9 -4 -16
-10 -16 -5 0 -10 -6 -10 -14 0 -8 -6 -21 -13 -28 -7 -7 -21 -29 -30 -48 -20
-40 -39 -73 -48 -80 -3 -3 -14 -22 -25 -43 -36 -73 -39 -77 -46 -77 -5 0 -8
-5 -8 -10 0 -6 -11 -28 -25 -50 l-25 -40 0 -2014 c0 -1240 4 -2017 9 -2021 8
-5 66 22 96 45 10 7 70 41 135 76 19 11 37 21 40 24 3 3 14 10 25 16 74 40
121 67 130 74 9 6 48 29 150 84 11 6 22 13 25 16 9 9 85 51 103 57 9 3 17 9
17 14 0 5 6 9 14 9 8 0 21 6 28 13 7 6 39 25 71 42 31 16 57 32 57 35 0 3 20
14 45 25 25 11 45 23 45 28 0 4 7 7 15 7 8 0 15 4 15 9 0 5 12 12 26 15 14 4
35 15 46 26 11 10 34 22 49 25 16 4 29 11 29 16 0 5 6 9 14 9 8 0 16 4 18 8 3
7 45 33 144 87 22 13 59 35 82 49 23 14 44 26 48 26 3 0 18 8 32 19 23 15 64
39 167 95 11 6 22 13 25 16 3 3 14 10 25 16 56 30 91 50 95 54 3 3 21 13 40
24 75 40 126 70 153 88 15 11 27 17 27 13 0 -3 24 10 52 30 29 19 56 35 61 35
5 0 27 13 50 28 23 16 56 36 72 44 49 24 100 53 105 58 9 9 85 51 103 57 9 3
17 9 17 14 0 5 6 9 14 9 8 0 21 8 28 18 7 10 45 33 83 52 39 19 72 37 75 40 3
3 14 10 25 16 69 38 118 66 154 88 22 14 43 26 46 26 3 0 31 16 61 35 30 19
57 35 60 35 4 0 72 41 130 78 23 15 66 35 77 36 4 1 11 6 15 12 4 6 34 26 67
44 70 39 75 44 98 90 33 64 83 150 95 162 7 7 12 16 12 20 0 5 15 32 33 61 17
29 40 69 51 89 10 21 27 46 37 57 11 11 19 26 19 33 0 7 10 29 23 48 13 19 33
54 45 77 27 53 46 87 52 93 3 3 10 14 16 25 30 56 50 91 54 95 3 3 14 21 24
40 11 19 26 41 33 48 7 7 13 19 13 26 0 7 13 33 29 58 16 25 32 60 36 78 4 20
15 34 26 37 10 3 19 12 19 19 0 8 4 14 9 14 5 0 11 8 14 18 3 9 20 42 37 72
18 30 39 69 49 85 9 17 18 32 21 35 3 3 10 14 16 25 30 56 50 91 54 95 3 3 10
14 16 25 33 62 50 91 55 95 4 3 9 15 13 28 4 12 12 22 17 22 5 0 9 7 9 15 0 8
5 15 10 15 6 0 10 7 10 15 0 14 25 61 40 75 3 3 18 30 34 60 16 30 31 57 35
60 3 3 14 21 24 40 42 82 77 144 90 159 8 9 23 34 34 56 47 91 68 130 74 135
5 4 30 48 83 145 6 11 13 22 16 25 3 3 10 14 16 25 30 56 50 91 54 95 3 3 10
14 16 25 30 56 50 91 54 95 3 3 13 21 24 40 40 74 70 126 87 152 11 14 19 29
19 32 0 4 12 25 26 48 14 23 37 61 50 85 13 23 35 62 48 86 13 23 32 58 42 77
11 19 21 37 24 40 8 8 28 43 47 80 9 19 19 37 22 40 9 7 28 40 48 80 9 19 23
41 30 48 7 7 13 20 13 28 0 8 3 14 8 14 4 0 15 17 25 38 17 37 37 72 47 82 3
3 10 14 16 25 31 57 50 91 54 95 3 3 11 16 18 30 42 87 93 146 149 174 21 10
46 22 55 27 10 5 51 9 91 9 59 0 83 -5 125 -26 68 -34 140 -107 148 -151 3
-18 10 -36 15 -39 12 -7 12 -151 0 -158 -4 -3 -11 -19 -14 -35 -4 -16 -21 -53
-39 -83 -19 -29 -42 -70 -53 -90 -11 -21 -23 -38 -27 -38 -5 0 -8 -9 -8 -20 0
-11 -4 -20 -9 -20 -5 0 -12 -8 -15 -17 -13 -33 -31 -63 -38 -63 -5 0 -8 -9 -8
-20 0 -11 -4 -20 -9 -20 -5 0 -12 -8 -15 -17 -13 -33 -31 -63 -38 -63 -5 0 -8
-8 -8 -19 0 -10 -7 -24 -15 -31 -8 -7 -15 -19 -15 -26 0 -8 -4 -14 -9 -14 -5
0 -11 -8 -14 -17 -6 -18 -48 -94 -57 -103 -3 -3 -10 -14 -16 -25 -57 -104 -81
-146 -105 -182 -16 -23 -29 -45 -29 -50 0 -5 -11 -25 -25 -46 -14 -20 -23 -37
-20 -37 2 0 -11 -25 -30 -55 -19 -30 -35 -57 -35 -60 0 -4 -8 -19 -19 -33 -15
-23 -39 -64 -95 -167 -6 -11 -13 -22 -16 -25 -3 -3 -10 -14 -16 -25 -30 -56
-50 -91 -54 -95 -3 -3 -10 -14 -16 -25 -33 -62 -50 -91 -55 -95 -4 -3 -9 -15
-13 -27 -4 -13 -12 -23 -17 -23 -5 0 -9 -7 -9 -15 0 -8 -4 -15 -10 -15 -5 0
-10 -7 -10 -15 0 -14 -25 -61 -40 -75 -3 -3 -18 -30 -34 -60 -16 -30 -31 -57
-35 -60 -3 -3 -14 -21 -23 -40 -10 -19 -24 -44 -30 -55 -33 -51 -76 -124 -95
-160 -57 -110 -68 -130 -74 -135 -5 -4 -30 -48 -83 -145 -6 -11 -13 -22 -16
-25 -14 -14 -30 -52 -25 -60 8 -12 -26 -59 -42 -60 -7 0 -13 -6 -13 -14 0 -8
-19 -47 -43 -88 -24 -40 -61 -104 -82 -143 -21 -38 -43 -73 -50 -77 -7 -4 -16
-20 -20 -35 -3 -16 -14 -36 -22 -46 -26 -28 -9 -29 31 -2 20 14 39 25 42 25 2
0 23 12 46 26 23 14 60 36 82 48 23 13 66 37 96 55 30 17 75 42 100 54 25 12
47 25 50 28 3 3 26 18 52 32 25 14 64 37 87 51 22 14 43 26 46 26 9 0 99 63
103 71 2 4 12 5 22 2 12 -3 20 0 20 7 0 16 30 39 51 40 9 0 36 11 60 24 24 13
60 32 79 42 19 11 37 21 40 24 3 3 14 10 25 16 57 30 91 50 95 54 3 3 23 14
45 25 22 11 42 23 43 28 2 4 10 7 18 7 8 0 14 4 14 9 0 5 12 14 28 20 15 6 45
22 67 36 22 14 47 28 55 32 8 3 26 14 40 23 25 17 80 49 150 86 19 11 37 21
40 24 3 3 14 10 25 16 56 30 91 50 95 54 3 3 19 12 35 21 43 23 79 43 85 49 3
3 21 13 40 24 19 10 54 29 78 42 23 13 62 35 88 49 25 14 62 36 82 50 20 14
41 25 45 25 5 0 21 8 35 19 26 17 78 47 152 87 19 11 37 21 40 24 3 3 14 10
25 16 56 30 91 50 95 54 10 10 45 30 83 47 20 10 37 21 37 25 0 5 6 8 14 8 8
0 21 6 28 13 7 7 29 21 48 30 38 19 72 39 80 47 3 3 14 10 25 16 56 30 91 50
95 54 5 5 57 34 105 58 17 8 41 23 55 33 14 9 47 29 73 43 67 37 126 70 171
95 33 19 55 23 125 22 51 0 87 -4 89 -10 2 -6 11 -11 20 -11 35 0 132 -91 159
-148 13 -28 18 -61 18 -132 0 -88 -3 -99 -29 -140 -39 -60 -77 -97 -131 -126
-25 -13 -65 -36 -90 -49 -26 -14 -63 -36 -83 -50 -20 -14 -42 -25 -49 -25 -7
0 -13 -4 -13 -9 0 -5 -8 -11 -17 -14 -18 -6 -94 -48 -103 -57 -3 -3 -14 -10
-25 -16 -56 -30 -91 -50 -95 -54 -3 -3 -23 -14 -45 -25 -22 -11 -42 -22 -45
-26 -3 -3 -12 -9 -20 -12 -8 -4 -33 -18 -55 -32 -22 -14 -51 -31 -65 -38 -14
-6 -27 -14 -30 -17 -3 -3 -14 -10 -25 -16 -56 -30 -91 -50 -95 -54 -3 -3 -19
-12 -35 -21 -56 -29 -80 -44 -87 -54 -4 -5 -8 -6 -8 -2 0 4 -20 -6 -44 -23
-25 -16 -48 -30 -53 -30 -5 0 -24 -11 -43 -23 -34 -23 -93 -57 -176 -103 -22
-12 -59 -34 -82 -48 -23 -14 -46 -26 -52 -26 -5 0 -10 -4 -10 -9 0 -5 -8 -11
-17 -14 -36 -12 -99 -53 -97 -62 3 -8 -182 -105 -200 -105 -3 0 -15 -8 -25
-17 -11 -9 -44 -30 -73 -46 -29 -16 -66 -36 -83 -46 -16 -9 -32 -18 -35 -21
-9 -9 -85 -51 -102 -57 -10 -3 -18 -9 -18 -14 0 -5 -5 -9 -10 -9 -6 0 -29 -12
-53 -27 -23 -14 -43 -26 -45 -24 -1 1 -27 -14 -57 -34 -31 -19 -58 -35 -61
-35 -3 0 -29 -15 -58 -32 -28 -18 -61 -38 -72 -45 -10 -7 -41 -24 -69 -39 -27
-14 -55 -31 -62 -36 -7 -5 -27 -18 -45 -27 -18 -10 -62 -35 -98 -56 -36 -21
-83 -48 -106 -60 -22 -13 -59 -35 -82 -49 -23 -14 -46 -26 -52 -26 -5 0 -19
-8 -29 -17 -11 -9 -44 -30 -73 -46 -29 -16 -66 -36 -83 -46 -16 -9 -32 -18
-35 -21 -3 -3 -22 -14 -43 -25 -21 -11 -41 -23 -43 -27 -3 -5 739 -9 1648 -9
909 -1 1662 -3 1673 -5 11 -2 40 -6 65 -10 85 -14 178 -79 214 -151 10 -21 22
-45 27 -55 14 -27 2 -173 -17 -215 -35 -74 -101 -140 -149 -149 -19 -3 -38
-10 -41 -15 -3 -5 -957 -9 -2253 -9 l-2248 0 -49 -26 c-27 -14 -53 -29 -59
-34 -10 -7 -69 -41 -135 -76 -19 -11 -37 -21 -40 -24 -3 -3 -14 -10 -25 -16
-56 -30 -91 -50 -95 -54 -9 -9 -85 -51 -102 -57 -10 -3 -18 -9 -18 -14 0 -5
-6 -9 -14 -9 -8 0 -21 -6 -28 -13 -7 -7 -30 -22 -51 -32 -22 -11 -47 -24 -58
-30 -10 -5 -19 -13 -19 -17 0 -5 -9 -8 -20 -8 -11 0 -20 -4 -20 -9 0 -5 -8
-11 -17 -15 -18 -5 -53 -26 -63 -36 -3 -3 -21 -13 -40 -24 -66 -35 -125 -69
-135 -76 -5 -5 -31 -20 -57 -34 -126 -68 -144 -79 -168 -95 -14 -10 -38 -25
-55 -33 -48 -24 -100 -53 -105 -58 -3 -3 -14 -10 -25 -16 -69 -38 -118 -66
-154 -88 -22 -14 -45 -26 -51 -26 -5 0 -10 -4 -10 -9 0 -5 -8 -11 -17 -14 -18
-6 -58 -28 -148 -82 -97 -58 -130 -76 -147 -82 -10 -3 -18 -9 -18 -14 0 -5 -6
-9 -14 -9 -8 0 -21 -6 -28 -13 -7 -6 -38 -25 -68 -41 -30 -16 -57 -32 -60 -35
-3 -3 -19 -13 -35 -22 -49 -25 -80 -44 -85 -50 -3 -4 -16 -10 -29 -14 -14 -4
-33 -16 -44 -25 -10 -10 -31 -21 -45 -25 -15 -4 -29 -10 -32 -15 -5 -7 -178
-110 -186 -110 -2 0 -28 -16 -58 -35 -30 -19 -58 -35 -61 -35 -4 0 -19 -8 -33
-19 -23 -15 -64 -39 -167 -95 -11 -6 -22 -13 -25 -16 -3 -3 -14 -10 -25 -16
-56 -30 -91 -50 -95 -54 -5 -5 -57 -34 -105 -58 -16 -8 -41 -23 -55 -33 -25
-17 -76 -46 -172 -97 -27 -14 -48 -31 -48 -37 0 -6 21 -23 48 -37 96 -51 147
-80 172 -97 14 -10 39 -25 55 -33 48 -24 100 -53 105 -58 3 -3 14 -10 25 -16
56 -30 91 -50 95 -54 3 -3 14 -10 25 -16 100 -54 144 -79 165 -94 14 -9 32
-20 40 -23 8 -4 33 -18 55 -32 22 -14 49 -30 60 -35 23 -11 58 -33 65 -40 3
-3 23 -14 45 -25 22 -11 42 -22 45 -25 9 -9 85 -51 103 -57 9 -3 17 -9 17 -14
0 -5 6 -9 13 -9 7 0 29 -11 49 -25 20 -14 59 -37 85 -51 26 -14 68 -38 93 -51
25 -14 63 -36 86 -48 22 -13 59 -35 82 -49 23 -14 44 -26 48 -26 3 0 18 -8 32
-19 28 -19 131 -77 169 -95 13 -6 23 -14 23 -18 0 -5 5 -8 10 -8 6 0 28 -11
50 -25 22 -14 40 -21 40 -17 0 5 -9 35 -20 67 -11 32 -20 62 -20 66 0 4 21 22
46 40 41 28 48 30 70 18 l24 -13 -31 -28 c-36 -33 -36 -53 0 -149 20 -53 26
-59 86 -90 36 -18 65 -39 65 -46 0 -7 7 -13 15 -13 14 0 61 -25 75 -40 6 -6
51 -31 122 -68 29 -15 59 -33 66 -39 10 -9 64 -13 190 -14 184 -1 194 -12 22
-25 -47 -4 -87 -8 -90 -11 -7 -7 48 -53 65 -53 8 0 15 -3 15 -8 0 -4 9 -12 19
-17 11 -6 36 -19 58 -30 21 -10 44 -25 51 -32 7 -7 20 -13 28 -13 8 0 14 -4
14 -9 0 -5 8 -11 18 -14 17 -6 93 -48 102 -57 3 -3 14 -10 25 -16 56 -30 91
-50 95 -54 3 -3 21 -13 40 -24 74 -40 126 -70 152 -87 14 -11 30 -19 35 -19 4
0 33 -17 63 -37 l55 -38 2255 -2 2255 -3 54 -27 c64 -33 109 -77 135 -129 10
-22 22 -47 27 -56 5 -10 9 -47 9 -83 0 -36 -4 -73 -9 -83 -5 -9 -17 -34 -27
-56 -26 -52 -71 -96 -135 -129 l-54 -27 -1712 0 c-1078 0 -1713 -4 -1713 -10
0 -10 66 -58 134 -95 25 -14 65 -36 89 -49 23 -13 58 -32 77 -42 19 -11 37
-21 40 -24 3 -3 14 -10 25 -16 56 -30 91 -50 95 -54 9 -9 85 -51 103 -57 9 -3
17 -9 17 -14 0 -5 6 -9 14 -9 8 0 21 -6 28 -12 7 -7 38 -26 68 -42 30 -16 57
-32 60 -35 3 -4 21 -15 40 -24 37 -19 72 -39 80 -47 3 -3 14 -10 25 -16 57
-30 91 -50 95 -54 3 -3 24 -14 47 -25 24 -11 43 -23 43 -27 0 -5 6 -8 13 -8 7
0 29 -11 49 -25 20 -14 57 -36 82 -50 26 -14 65 -36 89 -49 23 -13 58 -32 77
-42 19 -11 37 -21 40 -24 6 -6 42 -26 85 -49 16 -9 32 -18 35 -21 3 -3 14 -10
25 -16 56 -30 91 -50 95 -54 3 -3 14 -10 25 -16 11 -6 47 -26 80 -44 33 -18
69 -38 80 -44 11 -6 22 -13 25 -16 9 -9 85 -51 103 -57 9 -3 17 -9 17 -14 0
-5 5 -9 11 -9 10 0 134 -71 156 -90 7 -5 16 -10 22 -10 5 0 11 -3 13 -7 2 -5
35 -24 73 -43 39 -19 75 -40 82 -46 7 -7 34 -22 60 -35 26 -13 53 -27 58 -31
22 -18 145 -88 154 -88 6 0 11 -4 11 -9 0 -5 8 -11 18 -14 9 -3 44 -22 77 -42
33 -20 72 -41 88 -48 15 -6 27 -15 27 -19 0 -4 5 -8 10 -8 6 0 29 -12 51 -26
36 -22 85 -50 154 -88 11 -6 22 -13 25 -16 3 -3 21 -13 40 -24 74 -40 126 -70
152 -87 14 -11 30 -19 35 -19 4 0 32 -16 61 -35 28 -20 52 -33 52 -30 0 3 24
-10 52 -30 29 -19 58 -35 65 -35 7 0 13 -3 13 -7 0 -5 17 -16 38 -26 20 -10
55 -34 78 -55 36 -33 51 -55 85 -124 5 -10 9 -31 9 -48 0 -16 5 -30 10 -30 6
0 10 -7 10 -15 0 -8 -4 -15 -10 -15 -5 0 -10 -15 -10 -34 0 -67 -75 -179 -139
-207 -17 -8 -31 -17 -31 -21 0 -5 -11 -8 -24 -8 -14 0 -28 -4 -31 -10 -8 -13
-132 -13 -140 0 -3 5 -17 10 -31 10 -13 0 -24 4 -24 9 0 5 -8 11 -17 14 -18 6
-94 48 -103 57 -3 3 -21 13 -40 24 -66 35 -125 69 -135 76 -5 5 -31 20 -57 34
-126 68 -144 79 -168 95 -14 10 -38 25 -55 33 -48 24 -100 53 -105 58 -3 3
-14 10 -25 16 -56 30 -91 50 -95 54 -3 3 -14 10 -25 16 -56 30 -91 50 -95 54
-3 3 -21 13 -40 24 -75 40 -125 69 -130 76 -3 3 -21 14 -40 23 -19 10 -44 23
-55 30 -98 61 -127 77 -134 77 -5 0 -11 3 -13 8 -1 4 -21 16 -43 27 -22 11
-42 22 -45 25 -3 3 -21 14 -40 24 -19 10 -62 35 -95 54 -33 19 -80 46 -105 59
-25 14 -49 28 -55 33 -10 7 -69 41 -135 76 -19 11 -37 21 -40 24 -3 3 -14 10
-25 16 -56 30 -91 50 -95 54 -3 3 -14 10 -25 16 -102 55 -141 78 -150 84 -9 7
-56 34 -130 74 -11 6 -22 13 -25 16 -3 3 -21 14 -40 24 -81 44 -155 88 -160
95 -3 5 -16 12 -30 16 -14 4 -41 18 -60 31 -19 13 -40 24 -47 24 -7 0 -13 4
-13 9 0 5 -8 11 -17 14 -20 6 -95 49 -103 58 -3 3 -30 19 -60 35 -30 16 -61
35 -68 41 -7 7 -20 13 -28 13 -8 0 -14 4 -14 9 0 5 -8 11 -17 14 -10 3 -45 22
-78 42 -33 19 -71 41 -85 47 -14 7 -27 15 -30 18 -9 9 -85 51 -102 57 -10 3
-18 9 -18 14 0 5 -5 9 -10 9 -6 0 -29 12 -52 26 -23 14 -60 36 -82 48 -86 47
-142 80 -169 98 -24 17 -28 18 -33 3 -4 -9 0 -23 8 -33 14 -16 78 -128 102
-179 6 -13 14 -23 19 -23 4 0 7 -9 7 -20 0 -11 3 -20 8 -20 4 0 16 -17 27 -37
11 -21 22 -40 25 -43 3 -3 10 -14 16 -25 6 -11 26 -47 44 -80 18 -33 38 -69
44 -80 6 -11 13 -22 16 -25 3 -3 10 -14 16 -25 36 -68 50 -91 59 -97 6 -4 6
-8 2 -8 -4 0 4 -17 18 -37 14 -21 25 -41 25 -46 0 -4 16 -31 35 -60 19 -28 35
-55 35 -59 0 -4 16 -32 35 -62 19 -30 35 -60 35 -66 0 -5 4 -10 9 -10 5 0 11
-8 14 -17 6 -20 49 -95 58 -103 3 -3 14 -23 25 -45 10 -22 20 -42 23 -45 9 -7
28 -41 48 -80 9 -19 19 -37 22 -40 9 -7 28 -41 48 -80 9 -19 20 -37 23 -40 6
-4 30 -45 84 -145 6 -11 13 -22 16 -25 3 -3 10 -14 16 -25 30 -56 50 -91 54
-95 3 -3 13 -21 24 -40 10 -19 29 -54 42 -77 13 -24 35 -63 48 -86 13 -24 36
-62 50 -85 14 -23 26 -44 26 -48 0 -3 8 -18 19 -32 17 -26 47 -78 87 -152 11
-19 21 -37 24 -40 3 -3 10 -14 16 -25 30 -56 50 -91 54 -95 3 -3 10 -14 16
-25 30 -56 50 -91 54 -95 8 -8 28 -43 56 -98 15 -30 32 -59 38 -65 7 -7 21
-29 31 -50 11 -22 24 -47 30 -58 5 -10 13 -19 17 -19 5 0 8 -5 8 -11 0 -11 23
-67 41 -101 12 -24 12 -128 -1 -128 -5 0 -10 -13 -10 -30 0 -16 -4 -30 -9 -30
-5 0 -11 -10 -15 -22 -9 -37 -61 -92 -105 -113 -22 -11 -41 -24 -41 -28 0 -5
-8 -7 -17 -6 -10 1 -26 -1 -36 -6 -31 -13 -149 2 -192 25 -55 29 -97 68 -121
110 -10 19 -21 37 -24 40 -3 3 -14 23 -25 45 -11 22 -22 42 -25 45 -3 3 -10
14 -16 25 -30 56 -50 91 -54 95 -8 8 -28 43 -47 80 -9 19 -20 37 -24 40 -3 3
-19 30 -35 60 -16 30 -32 57 -35 60 -5 4 -30 48 -83 145 -6 11 -13 22 -16 25
-3 3 -10 14 -16 25 -36 68 -50 91 -59 97 -5 4 -6 8 -2 8 5 0 -1 13 -11 28 -11
15 -32 49 -46 75 -14 26 -37 67 -50 90 -13 24 -36 62 -50 85 -14 23 -26 44
-26 48 0 3 -8 18 -19 32 -17 26 -47 78 -87 152 -11 19 -21 37 -24 40 -3 3 -10
14 -16 25 -30 56 -50 91 -54 95 -8 8 -28 43 -47 80 -9 19 -19 37 -22 40 -9 8
-28 40 -57 98 -15 30 -32 59 -38 66 -6 6 -16 21 -22 31 -40 73 -50 91 -54 95
-3 3 -11 16 -18 30 -6 14 -27 52 -47 85 -19 33 -45 80 -57 105 -13 25 -26 47
-29 50 -3 3 -18 28 -34 55 -15 28 -31 55 -35 60 -7 10 -41 70 -76 135 -11 19
-21 37 -24 40 -3 3 -10 14 -16 25 -30 56 -50 91 -54 95 -3 3 -10 14 -16 25
-30 56 -50 91 -54 95 -9 9 -51 85 -57 103 -3 9 -9 17 -14 17 -5 0 -9 6 -9 14
0 8 -6 21 -13 28 -7 7 -21 29 -30 48 -20 40 -39 73 -48 80 -3 3 -14 22 -25 43
-36 73 -39 77 -46 77 -5 0 -8 5 -8 11 0 6 -8 23 -18 37 -10 15 -25 43 -32 62
-8 19 -16 37 -19 40 -9 7 -28 40 -48 80 -9 19 -20 37 -23 40 -14 12 -40 61
-40 75 0 8 -4 15 -10 15 -5 0 -10 7 -10 15 0 8 -4 15 -10 15 -5 0 -21 21 -33
48 -30 59 -60 115 -67 122 -3 3 -10 14 -16 25 -30 57 -50 91 -54 95 -3 3 -14
22 -25 43 -11 21 -35 45 -55 55 -19 10 -67 37 -107 60 -106 61 -134 77 -173
98 -19 11 -37 21 -40 24 -3 3 -14 10 -25 16 -56 30 -91 50 -95 54 -3 3 -14 10
-25 16 -56 30 -91 50 -95 54 -3 3 -21 13 -40 24 -73 39 -125 69 -137 79 -20
15 -16 -10 17 -118 34 -112 33 -105 20 -105 -6 0 -16 11 -22 25 -13 28 -33 35
-24 8 5 -16 4 -15 -9 1 -8 10 -32 73 -55 140 -36 109 -43 123 -71 135 -45 20
-174 95 -177 103 -2 5 -10 8 -18 8 -8 0 -14 4 -14 9 0 5 -13 12 -30 16 -16 4
-30 10 -30 14 0 3 -20 15 -45 26 -25 11 -45 23 -45 28 0 4 -7 7 -15 7 -8 0
-15 4 -15 8 0 5 -20 17 -45 28 -25 10 -45 21 -45 24 0 3 -26 19 -57 35 -32 17
-64 36 -71 43 -7 6 -20 12 -28 12 -8 0 -14 4 -14 9 0 5 -8 11 -17 14 -18 6
-94 48 -103 57 -3 3 -14 10 -25 16 -103 56 -144 80 -167 95 -14 11 -29 19 -32
19 -4 0 -25 12 -48 26 -23 14 -61 37 -85 50 -23 13 -63 35 -89 49 -25 14 -62
36 -82 50 -20 14 -40 25 -45 25 -5 0 -28 14 -53 30 -24 17 -44 27 -44 23 0 -4
-4 -3 -8 2 -7 10 -31 25 -87 54 -16 9 -32 18 -35 21 -4 4 -39 24 -95 54 -11 6
-22 14 -25 18 -3 4 -17 11 -30 17 -14 6 -43 22 -65 36 -22 14 -47 28 -55 32
-8 3 -17 9 -20 13 -3 3 -21 14 -40 23 -19 10 -57 31 -85 48 -27 16 -57 33 -65
36 -8 4 -17 9 -20 12 -8 9 -83 52 -102 58 -10 3 -18 9 -18 14 0 5 -6 9 -13 9
-7 0 -29 11 -49 25 -20 14 -56 35 -80 48 -24 13 -60 33 -81 46 -21 12 -43 19
-48 16 -5 -4 -9 -740 -9 -1915 l0 -1909 50 -83 c28 -46 50 -89 50 -95 0 -7 4
-13 9 -13 5 0 11 -8 14 -18 6 -17 48 -93 57 -102 3 -3 10 -14 16 -25 30 -56
50 -91 54 -95 3 -3 10 -14 16 -25 6 -11 26 -47 44 -80 18 -33 38 -69 44 -80 6
-11 13 -22 16 -25 3 -3 10 -14 16 -25 30 -56 50 -91 54 -95 10 -10 30 -46 54
-96 13 -28 30 -57 38 -65 7 -8 22 -30 32 -49 44 -79 65 -118 100 -178 20 -35
36 -68 36 -72 0 -5 3 -10 8 -12 9 -4 92 -147 92 -159 0 -5 4 -9 9 -9 5 0 11
-8 14 -18 6 -17 24 -50 82 -147 52 -88 65 -109 77 -135 7 -14 15 -27 18 -30 3
-3 10 -14 16 -25 30 -56 50 -91 54 -95 3 -3 10 -14 16 -25 30 -56 50 -91 54
-95 3 -3 13 -21 24 -40 10 -19 29 -54 42 -77 13 -24 35 -63 48 -86 13 -24 36
-62 50 -85 14 -23 26 -46 26 -52 0 -5 4 -10 8 -10 5 0 17 -19 28 -42 10 -24
21 -45 24 -48 8 -8 28 -42 47 -80 9 -19 19 -37 22 -40 9 -7 28 -41 48 -80 9
-19 20 -37 23 -40 10 -7 32 -51 28 -54 -32 -24 -76 -43 -84 -38 -5 4 -18 23
-27 42 -21 42 -40 73 -48 80 -4 3 -10 16 -14 30 -4 14 -14 32 -21 41 -15 17
-52 81 -86 149 -12 25 -30 54 -40 64 -10 11 -21 29 -24 40 -4 12 -14 32 -24
46 -17 24 -48 78 -86 150 -11 19 -21 37 -24 40 -6 6 -26 42 -49 85 -9 16 -18
32 -21 35 -3 3 -10 14 -16 25 -30 56 -50 91 -54 95 -8 8 -28 43 -47 80 -9 19
-19 37 -22 40 -9 8 -27 39 -62 108 -18 34 -36 62 -40 62 -6 0 -10 11 -17 42
-2 7 -42 74 -80 133 -6 11 -20 36 -30 55 -9 19 -19 37 -22 40 -8 8 -28 43 -47
80 -9 19 -20 37 -24 40 -3 3 -19 30 -35 60 -16 30 -32 57 -35 60 -6 5 -37 58
-75 130 -11 19 -21 37 -24 40 -3 3 -10 14 -16 25 -30 56 -50 91 -54 95 -3 3
-10 14 -16 25 -30 56 -50 91 -54 95 -5 5 -21 33 -62 110 -39 73 -52 95 -63
102 -5 4 -6 8 -2 8 5 0 -1 13 -11 28 -11 15 -31 48 -45 72 -13 25 -32 61 -43
80 -10 19 -21 37 -24 40 -9 9 -29 44 -48 80 -9 19 -21 38 -27 42 -7 5 -11 695
-13 2028 -2 1623 0 2020 10 2019 7 0 27 -9 43 -20 17 -10 37 -22 45 -26 8 -3
17 -9 20 -12 3 -3 14 -11 25 -17 56 -30 91 -50 95 -54 3 -3 21 -13 40 -24 66
-35 125 -69 135 -76 6 -5 31 -20 58 -34 125 -68 143 -79 167 -95 14 -10 39
-25 55 -33 48 -24 100 -53 105 -58 3 -3 14 -10 25 -16 56 -30 91 -50 95 -54 3
-3 14 -10 25 -16 97 -53 144 -79 165 -93 14 -9 42 -26 63 -36 20 -11 37 -22
37 -25 0 -3 20 -14 45 -24 25 -11 45 -23 45 -28 0 -4 7 -8 15 -8 8 0 15 -4 15
-8 0 -4 16 -14 35 -21 19 -7 40 -18 47 -24 17 -16 88 -57 111 -64 9 -3 17 -9
17 -13 0 -5 14 -11 30 -15 17 -4 30 -10 30 -14 0 -4 26 -21 58 -37 31 -16 59
-32 62 -35 3 -4 30 -19 60 -35 30 -16 61 -35 68 -41 7 -7 20 -13 28 -13 8 0
14 -4 14 -9 0 -5 8 -11 18 -14 17 -6 93 -48 102 -57 3 -3 14 -10 25 -16 56
-30 91 -50 95 -54 3 -3 23 -14 45 -25 22 -11 42 -22 45 -25 9 -9 85 -51 103
-57 9 -3 17 -9 17 -14 0 -5 6 -9 13 -9 7 0 36 -16 64 -35 29 -19 56 -35 60
-35 5 0 25 -11 46 -25 20 -14 37 -24 37 -23 0 2 -31 97 -69 211 l-70 207 112
0 112 0 -35 22 c-35 21 -68 39 -165 93 -27 15 -62 36 -77 47 -15 10 -28 16
-28 11 0 -4 -4 -3 -8 2 -7 10 -31 25 -87 54 -16 9 -32 18 -35 21 -8 8 -43 28
-80 47 -19 9 -37 19 -40 22 -8 9 -40 28 -85 51 -45 23 -77 42 -85 51 -3 3 -21
13 -40 22 -37 19 -72 39 -80 47 -3 3 -14 10 -25 16 -56 30 -91 50 -95 54 -3 3
-19 12 -35 21 -43 23 -79 43 -85 49 -3 3 -21 13 -40 24 -60 32 -113 62 -180
101 -67 39 -120 69 -180 101 -19 11 -37 21 -40 24 -3 3 -14 10 -25 16 -56 30
-91 50 -95 54 -3 3 -14 10 -25 16 -102 55 -141 78 -150 84 -5 4 -32 20 -60 35
-27 16 -52 31 -55 35 -3 3 -22 15 -43 26 -73 36 -77 39 -77 46 0 5 -6 8 -14 8
-18 0 -76 32 -76 43 0 4 -6 7 -14 7 -8 0 -16 3 -18 8 -2 4 -21 16 -43 27 -22
11 -42 22 -45 25 -9 9 -85 51 -102 57 -10 3 -18 9 -18 14 0 5 -6 9 -14 9 -26
0 -28 20 -4 29 13 6 43 24 68 40 25 17 51 31 58 31 6 0 12 3 12 8 0 4 20 16
45 27 25 11 45 23 45 28 0 4 7 7 15 7 8 0 15 3 15 8 0 4 19 16 43 27 23 11 44
22 47 25 3 3 14 10 25 16 56 30 91 50 95 54 8 8 43 28 80 47 19 9 37 19 40 22
8 9 40 28 85 51 43 22 77 42 85 50 3 3 14 10 25 16 56 30 91 50 95 54 5 5 47
28 125 69 28 14 52 28 55 31 5 6 65 41 150 87 25 14 50 28 55 33 10 7 69 41
135 76 19 11 37 21 40 24 3 3 14 10 25 16 56 30 91 50 95 54 3 3 14 10 25 16
56 30 91 50 95 54 9 9 85 51 103 57 9 3 17 9 17 14 0 5 6 9 14 9 8 0 21 6 28
13 7 7 34 23 59 34 26 12 53 28 61 35 7 7 39 26 71 42 31 16 57 32 57 36 0 5
14 11 30 15 17 4 30 10 30 14 0 5 28 23 63 40 82 43 141 75 147 81 8 8 43 28
80 47 19 9 37 20 40 23 5 7 55 36 130 76 19 11 37 21 40 24 3 3 14 10 25 16
56 30 91 50 95 54 3 3 14 10 25 16 56 30 91 50 95 54 5 5 57 34 105 58 17 8
41 23 55 33 14 9 47 29 73 43 26 14 66 37 90 50 23 13 58 32 77 42 19 11 37
21 40 24 3 3 17 11 32 19 15 8 37 22 47 33 11 10 25 18 31 18 5 0 10 5 10 10
0 6 5 10 10 10 6 0 30 9 52 20 41 20 62 20 2284 20 1485 0 2245 3 2249 10 3 6
16 10 29 10 28 0 116 84 116 111 0 10 5 19 10 19 20 0 11 98 -14 144 -30 57
-46 73 -80 82 -14 3 -26 10 -26 15 0 5 -798 9 -1910 9 -1242 0 -1910 3 -1910
10 0 5 11 12 25 16 14 3 25 10 25 15 0 5 4 9 10 9 5 0 34 16 64 35 30 19 58
35 61 35 4 0 21 10 38 22 18 13 34 23 37 24 18 3 50 21 79 45 19 16 39 25 44
22 5 -3 12 -2 16 3 8 12 38 30 84 51 20 10 37 21 37 25 0 5 6 8 14 8 7 0 19 7
26 15 7 8 21 15 31 15 11 0 19 5 19 10 0 6 7 10 15 10 8 0 15 4 15 8 0 4 26
21 58 37 31 17 59 33 62 36 5 6 58 37 130 75 19 11 37 21 40 24 3 3 14 10 25
16 56 30 91 50 95 54 3 3 14 10 25 16 56 30 91 50 95 54 7 7 42 26 129 71 41
22 79 45 83 52 4 6 8 8 8 4 0 -4 17 4 37 18 21 14 41 25 46 25 4 0 31 16 60
35 28 19 57 35 64 35 7 0 13 3 13 8 0 4 20 16 45 27 25 11 45 23 45 28 0 4 7
7 15 7 8 0 15 5 15 10 0 6 6 10 14 10 7 0 19 7 26 15 7 8 21 15 31 15 11 0 19
7 19 15 0 8 6 12 14 9 8 -3 16 3 19 15 3 13 17 22 43 27 22 4 41 10 44 13 3 3
21 14 40 25 68 37 116 63 204 114 49 29 91 52 93 52 3 0 17 8 31 19 26 17 78
47 152 87 19 11 37 21 40 24 8 8 43 28 80 47 19 9 37 19 40 22 7 9 41 28 80
48 19 9 37 20 40 23 4 6 45 30 145 84 11 6 22 13 25 16 3 3 14 10 25 16 56 30
91 50 95 54 5 5 57 34 105 58 17 8 41 23 55 33 24 16 42 27 168 95 26 14 52
29 57 34 10 7 69 41 135 76 19 11 37 21 40 24 3 3 21 14 40 24 41 22 89 70
109 109 23 43 17 140 -10 179 -34 50 -80 87 -117 94 -41 8 -152 -1 -161 -13
-3 -4 -15 -13 -26 -19 -56 -30 -91 -50 -95 -54 -8 -8 -43 -28 -80 -47 -19 -9
-37 -20 -40 -24 -3 -4 -17 -12 -30 -18 -14 -6 -43 -22 -65 -36 -22 -14 -47
-28 -55 -32 -8 -4 -38 -22 -67 -40 -29 -18 -55 -33 -58 -33 -3 0 -24 -12 -46
-26 -36 -22 -85 -50 -154 -88 -11 -6 -22 -13 -25 -16 -3 -3 -21 -13 -40 -24
-60 -32 -113 -62 -180 -101 -36 -21 -83 -48 -106 -60 -22 -13 -59 -35 -82 -49
-23 -14 -46 -26 -52 -26 -5 0 -10 -3 -10 -7 0 -5 -19 -17 -43 -28 -23 -11 -44
-22 -47 -25 -3 -3 -14 -10 -25 -16 -56 -30 -91 -50 -95 -54 -8 -8 -43 -28 -80
-47 -19 -9 -37 -19 -40 -22 -8 -9 -40 -28 -85 -51 -43 -22 -77 -42 -85 -50 -3
-3 -14 -10 -25 -16 -56 -30 -91 -50 -95 -54 -3 -3 -19 -12 -35 -21 -56 -29
-80 -44 -87 -54 -4 -5 -8 -6 -8 -2 0 5 -13 -1 -28 -11 -28 -21 -88 -54 -177
-101 -27 -14 -52 -29 -55 -32 -3 -4 -29 -19 -57 -35 -29 -15 -53 -34 -53 -41
0 -12 -5 -14 -38 -17 -7 -1 -16 -6 -20 -11 -10 -14 -91 -55 -108 -55 -8 0 -14
-4 -14 -10 0 -5 -7 -10 -15 -10 -8 0 -15 -3 -15 -7 0 -11 -58 -43 -76 -43 -8
0 -14 -4 -14 -10 0 -5 -7 -10 -15 -10 -8 0 -15 -3 -15 -7 0 -11 -58 -43 -76
-43 -8 0 -14 -4 -14 -9 0 -5 -8 -11 -17 -15 -10 -3 -27 -11 -37 -18 -53 -35
-126 -78 -131 -78 -4 0 -19 -8 -33 -19 -26 -17 -78 -47 -152 -87 -19 -11 -37
-21 -40 -24 -3 -3 -14 -10 -25 -16 -56 -30 -91 -50 -95 -54 -3 -3 -14 -10 -25
-16 -68 -36 -91 -50 -97 -59 -4 -5 -8 -6 -8 -1 0 5 -8 2 -17 -6 -10 -9 -36
-25 -58 -35 -68 -34 -110 -58 -113 -65 -2 -5 -8 -8 -14 -8 -5 0 -23 -9 -38
-20 l-28 -20 11 25 c7 14 15 25 20 25 4 0 7 8 7 19 0 10 6 24 13 30 8 6 24 32
37 58 13 27 29 55 36 63 7 8 27 44 45 80 18 36 36 67 39 70 4 3 20 30 36 60
16 30 31 57 34 60 3 3 10 14 16 25 53 97 78 141 83 145 7 6 24 42 41 88 7 17
19 32 26 32 8 0 14 7 14 15 0 8 5 15 10 15 6 0 10 9 10 20 0 11 3 20 8 20 4 0
16 17 27 38 11 20 22 39 25 42 3 3 14 23 25 45 11 22 22 42 25 45 3 3 10 14
16 25 30 56 50 91 54 95 9 9 51 85 57 103 3 9 9 17 14 17 5 0 9 5 9 11 0 9 68
129 87 154 4 6 21 36 37 68 15 31 32 57 36 57 4 0 11 11 14 25 6 22 21 49 83
150 7 11 20 36 30 55 9 19 19 37 22 40 10 9 31 45 37 63 4 9 10 17 15 17 5 0
9 9 9 20 0 11 4 20 8 20 5 0 17 18 28 40 10 22 22 40 27 40 4 0 7 8 7 19 0 10
7 24 15 31 8 7 15 19 15 26 0 8 5 14 10 14 6 0 10 7 10 15 0 8 5 15 10 15 6 0
10 8 10 19 0 10 7 24 15 31 8 7 15 19 15 26 0 8 4 14 9 14 5 0 11 8 14 18 6
17 48 93 57 102 3 3 12 19 21 35 23 43 43 79 49 85 3 3 13 21 24 40 35 66 69
125 76 135 5 6 20 31 34 58 14 26 37 66 50 90 13 23 32 58 42 77 11 19 21 37
24 40 8 8 28 43 47 80 9 19 19 37 22 40 10 9 30 43 48 83 10 20 21 37 25 37 5
0 8 6 8 14 0 8 6 21 13 28 17 19 56 96 74 147 13 40 13 49 -2 97 -18 57 -85
134 -117 134 -9 0 -20 5 -23 10 -11 18 -91 11 -134 -12 -49 -26 -103 -77 -95
-89 3 -5 2 -9 -3 -9 -4 0 -13 -10 -19 -23 -17 -35 -49 -92 -54 -97 -3 -3 -10
-14 -16 -25 -31 -57 -50 -91 -54 -95 -3 -3 -11 -16 -18 -30 -6 -14 -28 -52
-47 -85 -20 -33 -39 -67 -42 -75 -4 -8 -9 -17 -12 -20 -3 -3 -15 -21 -25 -40
-11 -19 -22 -37 -26 -40 -3 -3 -14 -23 -24 -45 -11 -22 -22 -42 -25 -45 -3 -3
-19 -30 -35 -60 -16 -30 -32 -57 -35 -60 -4 -3 -15 -21 -24 -40 -20 -39 -39
-73 -48 -80 -3 -3 -13 -21 -22 -40 -19 -37 -39 -72 -47 -80 -3 -3 -13 -21 -23
-40 -33 -64 -50 -95 -75 -135 -14 -22 -24 -42 -23 -44 2 -2 -1 -7 -6 -10 -10
-8 -53 -80 -60 -103 -3 -10 -9 -18 -14 -18 -5 0 -9 -9 -9 -20 0 -11 -4 -20
-10 -20 -5 0 -12 -11 -16 -25 -3 -14 -10 -25 -15 -25 -5 0 -9 -6 -9 -14 0 -8
-3 -16 -7 -18 -5 -1 -17 -21 -28 -43 -11 -22 -22 -42 -25 -45 -3 -3 -10 -14
-16 -25 -30 -56 -50 -91 -54 -95 -3 -3 -10 -14 -16 -25 -30 -56 -50 -91 -54
-95 -3 -3 -13 -21 -24 -40 -40 -75 -69 -125 -76 -130 -3 -3 -16 -26 -28 -51
-11 -26 -27 -53 -34 -60 -8 -8 -24 -34 -36 -59 -12 -25 -35 -67 -51 -95 -17
-27 -38 -66 -48 -85 -9 -19 -19 -37 -22 -40 -9 -7 -28 -40 -48 -80 -9 -19 -23
-41 -29 -47 -7 -7 -18 -26 -26 -43 -7 -16 -16 -30 -20 -30 -5 0 -8 -8 -8 -19
0 -10 -7 -24 -15 -31 -8 -7 -15 -19 -15 -26 0 -8 -4 -14 -10 -14 -5 0 -10 -7
-10 -15 0 -8 -4 -15 -10 -15 -5 0 -10 -11 -10 -25 0 -14 -9 -35 -20 -47 -11
-12 -29 -40 -41 -62 -12 -23 -24 -43 -28 -46 -3 -3 -21 -34 -40 -70 -18 -36
-39 -72 -45 -80 -6 -8 -17 -26 -25 -39 -18 -32 -61 -111 -75 -136 -6 -11 -13
-22 -17 -25 -3 -3 -14 -22 -25 -43 -36 -73 -39 -77 -46 -77 -5 0 -8 -7 -8 -16
0 -8 -11 -30 -25 -48 -14 -18 -25 -38 -25 -44 0 -7 -4 -12 -10 -12 -5 0 -10
-7 -10 -16 0 -8 -11 -30 -25 -48 -14 -18 -25 -38 -25 -44 0 -7 -4 -12 -10 -12
-5 0 -10 -7 -10 -16 0 -8 -11 -30 -25 -48 -14 -18 -25 -36 -25 -40 0 -4 -15
-30 -32 -59 -18 -29 -42 -69 -52 -90 -26 -50 -58 -81 -109 -106 -23 -12 -62
-34 -87 -51 -25 -16 -49 -30 -53 -30 -5 0 -21 -8 -35 -19 -26 -17 -78 -47
-152 -87 -19 -11 -37 -21 -40 -24 -10 -10 -65 -42 -92 -53 -16 -6 -28 -15 -28
-19 0 -4 -5 -8 -12 -8 -6 0 -26 -11 -44 -25 -18 -14 -40 -25 -48 -25 -9 0 -16
-4 -16 -8 0 -4 -12 -13 -27 -19 -16 -7 -53 -26 -83 -44 -30 -17 -73 -41 -95
-54 -22 -12 -67 -38 -100 -57 -33 -19 -76 -44 -95 -54 -19 -10 -37 -21 -40
-24 -10 -10 -65 -42 -92 -53 -16 -6 -28 -14 -28 -17 0 -3 -20 -14 -45 -25 -25
-11 -45 -23 -45 -27 0 -5 -7 -8 -15 -8 -8 0 -15 -3 -15 -7 0 -5 -19 -17 -43
-28 -23 -11 -44 -22 -47 -25 -3 -3 -22 -14 -42 -25 -21 -11 -38 -23 -38 -27 0
-5 -9 -8 -20 -8 -11 0 -20 -4 -20 -9 0 -5 -8 -12 -17 -15 -33 -13 -63 -31 -63
-38 0 -5 -9 -8 -20 -8 -11 0 -20 -4 -20 -9 0 -5 -8 -11 -17 -15 -10 -3 -27
-11 -38 -18 -60 -39 -126 -78 -133 -78 -4 0 -24 -11 -44 -25 -20 -14 -57 -36
-83 -50 -25 -13 -65 -36 -90 -50 -25 -14 -65 -36 -91 -50 -25 -14 -62 -36 -82
-50 -20 -14 -41 -25 -45 -25 -5 0 -21 -8 -35 -19 -26 -17 -78 -47 -152 -87
-19 -11 -37 -21 -40 -24 -3 -3 -14 -10 -25 -16 -56 -30 -91 -50 -95 -54 -3 -3
-14 -10 -25 -16 -56 -30 -91 -50 -95 -54 -3 -3 -21 -13 -40 -24 -72 -39 -125
-69 -130 -75 -3 -3 -31 -19 -62 -35 -32 -16 -58 -32 -58 -36 0 -4 -11 -11 -25
-14 -14 -4 -50 -22 -80 -41 -30 -19 -59 -35 -65 -35 -5 0 -10 -4 -10 -8 0 -5
-19 -17 -42 -28 -24 -10 -45 -21 -48 -24 -8 -8 -42 -28 -80 -47 -19 -9 -37
-20 -40 -23 -8 -11 -100 -60 -111 -60 -8 0 -10 634 -7 2118 l4 2117 28 50 c16
28 32 55 36 60 5 6 20 31 34 58 14 26 37 66 50 90 13 23 32 58 42 77 11 19 21
37 24 40 3 3 10 14 16 25 33 62 50 91 55 95 3 3 11 22 18 42 7 20 19 42 27 48
7 7 14 16 14 21 0 5 16 31 35 58 19 26 35 52 35 57 0 5 16 33 35 61 19 29 35
57 35 63 0 6 12 27 26 46 15 19 22 34 18 34 -5 0 -1 5 9 11 9 5 17 18 17 27 0
9 9 28 20 42 11 14 20 29 20 33 0 4 16 33 35 63 19 30 35 57 35 60 0 3 16 30
35 60 19 30 35 58 35 62 0 4 15 30 34 57 18 28 36 60 40 73 4 12 12 22 17 22
5 0 9 7 9 15 0 8 5 15 10 15 6 0 10 6 10 14 0 18 32 76 43 76 4 0 7 7 7 15 0
8 5 15 10 15 6 0 10 7 10 15 0 14 26 63 40 75 3 3 15 22 26 43 36 73 39 77 46
77 5 0 8 7 8 17 0 9 11 31 25 49 14 18 25 37 25 43 0 6 5 11 10 11 6 0 10 7
10 16 0 9 16 38 35 64 19 26 35 53 35 60 0 6 12 27 26 46 15 19 22 34 18 34
-5 0 -4 4 2 8 6 4 17 21 26 37 21 42 69 128 78 140 4 6 20 33 36 60 15 28 34
55 43 62 9 7 12 13 8 13 -4 0 5 19 21 43 15 23 38 61 50 84 27 53 46 87 52 93
4 4 24 39 54 95 6 11 13 22 16 25 3 3 10 14 16 25 30 56 50 91 54 95 3 3 13
21 24 40 38 72 69 125 75 130 3 3 19 30 35 60 16 30 32 57 35 60 4 3 14 21 24
40 17 37 80 147 94 165 5 6 21 36 37 68 16 31 33 57 37 57 4 0 10 12 13 26 4
15 17 41 30 58 12 17 30 47 40 66 17 37 38 72 46 80 11 11 53 98 67 138 15 45
12 86 -10 132 -16 34 -88 100 -109 100 -9 0 -20 5 -23 10 -8 12 -92 13 -99 1
-3 -4 -18 -11 -34 -14 -32 -6 -92 -60 -92 -82 0 -8 -4 -15 -9 -15 -5 0 -11 -8
-14 -17 -6 -18 -48 -94 -57 -103 -3 -3 -10 -14 -16 -25 -30 -56 -50 -91 -54
-95 -9 -9 -51 -85 -57 -102 -3 -10 -9 -18 -14 -18 -5 0 -9 -6 -9 -14 0 -8 -6
-21 -12 -28 -7 -7 -26 -38 -42 -68 -16 -30 -31 -57 -35 -60 -3 -3 -19 -30 -35
-60 -16 -30 -32 -57 -35 -60 -4 -3 -15 -23 -25 -45 -11 -22 -22 -42 -25 -45
-3 -3 -17 -25 -30 -50 -13 -25 -30 -52 -37 -60 -7 -8 -16 -27 -19 -42 -4 -16
-10 -28 -14 -28 -4 0 -20 -26 -36 -57 -17 -32 -33 -60 -36 -63 -3 -3 -21 -32
-38 -65 -18 -33 -43 -78 -57 -100 -13 -22 -29 -51 -35 -65 -6 -13 -13 -27 -17
-30 -4 -3 -20 -30 -36 -60 -16 -30 -32 -57 -35 -60 -4 -3 -17 -26 -29 -51 -11
-26 -27 -53 -34 -60 -8 -8 -22 -30 -32 -49 -75 -147 -148 -274 -158 -278 -4
-2 -8 -10 -8 -18 0 -8 -3 -14 -7 -14 -5 0 -17 -20 -28 -45 -11 -25 -23 -45
-27 -45 -5 0 -8 -7 -8 -15 0 -8 -4 -15 -10 -15 -5 0 -10 -8 -10 -19 0 -10 -7
-24 -15 -31 -8 -7 -15 -19 -15 -26 0 -8 -4 -14 -10 -14 -5 0 -10 -7 -10 -17 0
-9 -11 -31 -25 -49 -14 -18 -25 -37 -25 -43 0 -6 -4 -11 -10 -11 -5 0 -10 -7
-10 -16 0 -8 -11 -30 -25 -48 -14 -18 -25 -38 -25 -44 0 -7 -4 -12 -10 -12 -5
0 -10 -7 -10 -16 0 -8 -11 -30 -25 -48 -14 -18 -25 -38 -25 -44 0 -7 -4 -12
-10 -12 -5 0 -10 -7 -10 -16 0 -8 -11 -30 -25 -48 -14 -18 -25 -38 -25 -43 0
-6 -16 -34 -35 -62 -19 -28 -35 -55 -35 -60 0 -5 -15 -31 -33 -57 -17 -27 -43
-73 -57 -101 -14 -29 -28 -53 -32 -53 -5 0 -8 -9 -8 -19 0 -11 -7 -26 -15 -34
-8 -8 -11 -17 -8 -21 3 -3 -1 -8 -10 -12 -15 -6 -69 -87 -66 -100 0 -4 -3 -10
-8 -13 -11 -8 -42 -59 -56 -93 -6 -16 -14 -28 -17 -28 -3 0 -5 150 -6 332 -6
3402 -9 3943 -24 3967 -25 40 -70 81 -96 87 -13 3 -27 10 -30 15 -9 14 -97 10
-118 -6 -11 -8 -26 -15 -33 -15 -16 0 -72 -60 -73 -77 0 -6 -4 -13 -10 -15 -6
-2 -10 -605 -11 -1693 -1 -1731 -7 -2615 -18 -2615 -7 0 -15 14 -46 79 -11 22
-23 41 -27 41 -5 0 -8 6 -8 14 0 8 -6 21 -12 28 -7 7 -20 27 -28 43 -8 17 -18
32 -21 35 -6 5 -37 58 -75 130 -11 19 -21 37 -24 40 -6 6 -26 42 -49 85 -9 16
-18 32 -21 35 -3 3 -10 14 -16 25 -30 56 -50 91 -54 95 -3 3 -12 19 -20 35 -8
17 -21 38 -29 48 -8 9 -11 17 -7 17 4 0 -4 15 -16 33 -13 17 -31 46 -39 62 -7
17 -20 36 -27 44 -7 7 -23 34 -35 60 -11 25 -27 52 -35 60 -7 7 -23 34 -34 60
-12 25 -25 48 -28 51 -4 3 -15 23 -26 45 -10 22 -25 47 -33 55 -7 8 -20 28
-27 45 -7 16 -27 50 -44 75 -16 25 -30 49 -30 53 0 5 -8 21 -19 35 -17 26 -47
78 -87 152 -11 19 -21 37 -24 40 -7 7 -30 48 -49 85 -8 17 -17 32 -21 35 -3 3
-20 32 -36 65 -17 33 -43 78 -57 99 -15 21 -27 43 -27 49 0 6 -11 25 -25 43
-14 18 -25 36 -25 39 0 6 -47 72 -60 85 -3 3 -6 16 -8 30 -1 13 -6 27 -10 30
-4 3 -12 14 -18 25 -30 57 -50 91 -54 95 -3 3 -14 23 -25 45 -11 22 -22 42
-25 45 -3 3 -10 14 -16 25 -30 56 -50 91 -54 95 -3 3 -13 21 -24 40 -10 19
-29 54 -42 78 -13 23 -35 62 -48 85 -13 24 -36 62 -50 85 -14 23 -26 46 -26
52 0 5 -4 10 -9 10 -5 0 -11 8 -14 18 -6 17 -48 93 -57 102 -8 8 -28 43 -47
80 -9 19 -20 37 -24 40 -3 3 -9 15 -13 28 -4 12 -12 22 -17 22 -5 0 -9 9 -9
20 0 11 -4 20 -9 20 -5 0 -11 8 -15 18 -14 44 -94 132 -119 132 -9 0 -19 5
-22 10 -3 6 -31 10 -60 10 -70 0 -130 -32 -170 -91 -25 -37 -29 -52 -29 -109
1 -51 6 -75 27 -112 15 -27 39 -69 53 -95 14 -27 29 -52 34 -58 7 -10 41 -69
76 -135 11 -19 21 -37 24 -40 3 -3 10 -14 16 -25 30 -56 50 -91 54 -95 10 -10
30 -45 47 -82 10 -21 21 -38 25 -38 5 0 8 -6 8 -14 0 -7 7 -19 15 -26 8 -7 15
-21 15 -31 0 -11 5 -19 10 -19 6 0 10 -7 10 -15 0 -8 5 -15 10 -15 6 0 10 -6
10 -14 0 -8 6 -21 13 -28 7 -7 21 -29 30 -48 20 -40 39 -73 48 -80 3 -3 13
-21 22 -40 19 -37 39 -72 47 -80 3 -3 13 -21 23 -40 9 -19 31 -57 47 -85 16
-27 40 -70 52 -95 12 -25 26 -49 30 -55 12 -15 88 -143 88 -149 0 -2 16 -21
35 -42 19 -20 35 -45 35 -56 0 -18 18 -58 31 -68 4 -3 19 -30 35 -60 16 -30
35 -61 42 -68 6 -7 12 -18 12 -23 0 -5 16 -33 35 -62 19 -28 35 -55 35 -60 0
-4 16 -31 35 -60 19 -28 35 -56 35 -60 0 -5 8 -21 19 -35 17 -26 47 -78 87
-152 11 -19 21 -37 24 -40 6 -6 26 -42 49 -85 9 -16 18 -32 21 -35 6 -6 26
-42 49 -85 9 -16 18 -32 22 -35 3 -3 13 -21 22 -40 10 -19 29 -53 43 -75 13
-22 27 -47 31 -55 3 -8 13 -23 21 -32 8 -10 12 -18 8 -18 -4 0 4 -15 16 -32
13 -18 30 -46 38 -63 8 -16 25 -44 37 -61 13 -17 23 -38 23 -47 0 -10 3 -17 8
-17 8 0 15 -12 47 -79 11 -22 23 -41 27 -41 5 0 8 -6 8 -14 0 -7 7 -19 15 -26
8 -7 15 -21 15 -31 0 -11 5 -19 10 -19 6 0 10 -7 10 -15 0 -8 4 -15 8 -15 4 0
21 -26 37 -57 16 -32 39 -71 51 -88 12 -16 25 -41 29 -55 4 -14 18 -41 31 -60
13 -19 24 -38 24 -42 0 -4 16 -32 35 -62 19 -30 35 -60 35 -66 0 -5 3 -10 8
-10 4 0 16 -20 27 -45 11 -25 23 -45 28 -45 4 0 7 -7 7 -15 0 -8 4 -15 8 -15
5 0 16 -19 27 -42 10 -24 21 -45 24 -48 9 -8 29 -41 51 -87 20 -42 20 -56 20
-2137 0 -1391 -3 -2096 -10 -2096 -5 0 -10 4 -10 8 0 4 -12 13 -27 19 -37 15
-87 46 -91 56 -2 4 -10 7 -17 7 -8 0 -20 6 -27 13 -7 6 -38 25 -68 41 -30 16
-57 31 -60 35 -3 3 -31 19 -62 36 -32 16 -58 32 -58 36 0 4 -13 10 -29 14 -16
3 -35 13 -42 22 -14 16 -58 37 -71 35 -5 -1 -8 2 -8 8 0 5 -7 10 -15 10 -8 0
-15 4 -15 8 0 5 -19 17 -42 28 -24 10 -45 21 -48 24 -9 10 -45 31 -62 36 -10
4 -18 10 -18 15 0 5 -9 9 -20 9 -11 0 -20 4 -20 8 0 5 -18 17 -40 28 -22 10
-40 22 -40 27 0 4 -9 7 -20 7 -11 0 -20 4 -20 9 0 5 -10 13 -22 17 -13 4 -25
9 -28 13 -3 3 -14 11 -25 17 -56 30 -91 50 -95 54 -4 4 -39 24 -95 54 -11 6
-22 13 -25 16 -3 3 -19 12 -35 21 -43 23 -79 43 -85 49 -3 3 -21 13 -40 24
-19 10 -54 29 -77 42 -24 13 -64 36 -90 50 -26 14 -59 34 -73 43 -14 10 -38
25 -55 33 -48 24 -100 53 -105 58 -8 8 -43 28 -80 47 -19 9 -37 19 -40 22 -7
9 -40 28 -80 48 -19 9 -41 23 -48 30 -7 7 -20 13 -28 13 -8 0 -14 3 -14 8 0 4
-17 15 -37 25 -38 17 -73 37 -83 47 -3 3 -14 10 -25 16 -56 30 -91 50 -95 54
-3 3 -19 12 -35 21 -43 23 -79 43 -85 49 -3 3 -21 13 -40 24 -66 35 -125 69
-135 76 -5 5 -30 19 -55 33 -25 13 -70 39 -100 56 -30 17 -67 37 -82 44 -16 6
-28 15 -28 19 0 4 -8 8 -19 8 -10 0 -24 7 -31 15 -7 8 -19 15 -26 15 -8 0 -14
5 -14 10 0 6 -6 10 -14 10 -8 0 -16 3 -18 8 -1 4 -21 16 -43 27 -22 11 -42 22
-45 25 -9 9 -85 51 -102 57 -10 3 -18 9 -18 14 0 5 -6 9 -13 9 -7 0 -36 16
-64 35 -29 19 -56 35 -60 35 -4 0 -28 14 -53 30 -25 17 -58 37 -75 45 -116 56
-138 77 -192 185 -10 19 -20 37 -23 40 -8 8 -28 43 -47 80 -9 19 -19 37 -22
40 -9 7 -28 41 -48 80 -9 19 -20 37 -24 40 -3 3 -19 30 -35 60 -16 30 -32 57
-35 60 -6 5 -37 58 -75 130 -11 19 -21 37 -24 40 -3 3 -10 14 -16 25 -30 56
-50 91 -54 95 -3 3 -10 14 -16 25 -6 11 -24 43 -39 70 -16 28 -42 75 -58 105
-16 30 -35 62 -43 71 -8 8 -14 20 -14 26 0 6 -7 16 -15 23 -9 7 -14 19 -11 27
3 7 2 13 -2 13 -7 0 -10 5 -46 77 -11 21 -23 40 -27 43 -3 3 -19 30 -35 60
-16 30 -32 57 -35 60 -5 4 -30 48 -83 145 -6 11 -13 22 -16 25 -3 3 -10 14
-16 25 -30 56 -50 91 -54 95 -3 3 -10 14 -16 25 -30 56 -50 91 -54 95 -3 3
-13 21 -24 40 -10 19 -29 54 -42 78 -13 23 -36 63 -50 90 -14 26 -29 52 -34
57 -7 10 -41 69 -76 135 -11 19 -21 37 -24 40 -8 8 -28 43 -47 80 -9 19 -19
37 -22 40 -9 7 -28 41 -48 80 -9 19 -19 37 -22 40 -9 7 -28 40 -48 80 -9 19
-23 41 -30 48 -7 7 -13 20 -13 28 0 8 -3 14 -8 14 -4 0 -15 17 -25 38 -17 37
-37 72 -47 82 -3 3 -10 14 -16 25 -30 56 -50 91 -54 95 -3 3 -13 21 -24 40
-10 19 -29 54 -42 78 -13 23 -36 63 -50 90 -14 26 -29 52 -34 57 -7 10 -41 69
-76 135 -11 19 -21 37 -24 40 -6 6 -26 42 -49 85 -9 16 -18 32 -21 35 -3 3
-10 14 -16 25 -30 56 -50 91 -54 95 -8 8 -28 43 -47 80 -9 19 -19 37 -22 40
-9 8 -28 40 -51 85 -58 114 -136 174 -227 175 -17 0 -35 -4 -38 -10 -3 -5 -15
-10 -26 -10 -10 0 -19 -4 -19 -10 0 -5 -6 -10 -13 -10 -8 0 -23 -10 -34 -22
-60 -67 -71 -174 -26 -255 14 -26 31 -57 37 -68 6 -11 13 -22 16 -25 3 -3 13
-21 24 -40 10 -19 29 -54 42 -77 13 -24 35 -63 48 -86 13 -24 36 -62 50 -85
14 -23 26 -46 26 -52 0 -5 4 -10 9 -10 5 0 11 -8 14 -17 6 -18 48 -94 57 -103
3 -3 14 -23 25 -45 11 -22 22 -42 25 -45 8 -8 28 -43 47 -80 9 -19 19 -37 22
-40 9 -7 28 -41 48 -80 9 -19 19 -37 22 -40 9 -7 28 -40 48 -80 9 -19 23 -41
30 -48 7 -7 13 -20 13 -28 0 -8 4 -14 9 -14 5 0 11 -8 14 -17 6 -18 48 -94 57
-103 3 -3 12 -19 21 -35 28 -54 44 -80 52 -86 5 -3 9 -10 9 -15 0 -9 27 -59
80 -147 15 -26 28 -50 28 -53 0 -3 8 -18 19 -32 17 -26 47 -78 87 -152 11 -19
21 -37 24 -40 3 -3 10 -14 16 -25 30 -56 50 -91 54 -95 8 -8 28 -43 47 -80 9
-19 19 -37 22 -40 10 -9 30 -43 48 -82 10 -21 21 -38 25 -38 5 0 8 -6 8 -14 0
-8 6 -21 13 -28 7 -7 21 -29 30 -48 20 -40 39 -73 48 -80 3 -3 13 -21 22 -40
23 -46 40 -74 50 -81 5 -3 9 -10 9 -15 2 -22 11 -44 18 -44 4 0 13 -13 20 -30
7 -16 16 -30 21 -30 5 0 9 -7 9 -15 0 -8 3 -15 8 -15 4 0 16 -20 27 -45 11
-25 24 -45 29 -45 5 0 7 -3 4 -6 -4 -3 5 -22 18 -41 13 -20 24 -40 24 -46 0
-6 10 -24 23 -41 13 -17 30 -46 38 -63 8 -18 17 -33 21 -33 5 0 8 -6 8 -14 0
-7 7 -19 15 -26 8 -7 15 -21 15 -31 0 -11 5 -19 10 -19 6 0 10 -7 10 -15 0 -8
3 -15 8 -15 10 0 42 -58 42 -76 0 -8 5 -14 10 -14 6 0 10 -7 10 -15 0 -8 4
-15 8 -15 5 0 17 -19 27 -42 10 -24 25 -49 32 -56 15 -15 17 -32 4 -32 -4 0
-25 11 -45 25 -20 14 -41 25 -46 25 -6 0 -10 5 -10 10 0 6 -6 10 -13 10 -7 0
-36 16 -64 35 -29 19 -57 35 -63 35 -6 0 -27 12 -46 26 -19 15 -34 22 -34 18
0 -5 -4 -4 -8 1 -4 6 -25 19 -47 30 -22 11 -42 22 -45 25 -3 3 -14 10 -25 16
-56 30 -91 50 -95 54 -3 3 -14 10 -25 16 -56 30 -91 50 -95 54 -9 9 -85 51
-102 57 -10 3 -18 9 -18 14 0 5 -6 9 -14 9 -8 0 -21 6 -28 13 -7 6 -39 25 -70
42 -32 16 -58 33 -58 37 0 4 -7 8 -15 8 -8 0 -15 5 -15 10 0 6 -8 10 -19 10
-10 0 -24 7 -31 15 -7 8 -19 15 -26 15 -8 0 -14 4 -14 8 0 4 -20 16 -45 26
-25 11 -45 23 -45 28 0 4 -3 7 -7 6 -22 -4 -113 44 -113 59 0 7 -7 13 -15 13
-8 0 -15 4 -15 8 0 4 -12 13 -27 19 -28 11 -83 43 -93 53 -3 3 -21 14 -40 24
-19 10 -62 35 -95 54 -33 19 -79 45 -102 58 -103 57 -130 73 -163 90 -19 11
-37 21 -40 24 -8 8 -43 28 -80 47 -19 9 -37 19 -40 22 -9 10 -43 30 -82 48
-21 10 -38 21 -38 25 0 5 -6 8 -14 8 -8 0 -21 6 -28 13 -7 7 -29 21 -48 30
-38 19 -72 39 -80 47 -3 3 -14 10 -25 16 -56 30 -91 50 -95 54 -3 3 -19 12
-35 21 -43 23 -79 43 -85 49 -3 3 -21 13 -40 24 -66 35 -125 69 -135 76 -5 5
-31 20 -57 34 -27 14 -67 37 -90 50 -24 13 -59 32 -78 42 -19 11 -37 21 -40
24 -6 6 -42 26 -85 49 -16 9 -32 18 -35 21 -3 3 -14 10 -25 16 -56 30 -91 50
-95 54 -3 3 -14 10 -25 16 -100 54 -141 78 -145 84 -3 3 -21 14 -40 23 -39 20
-73 39 -80 48 -3 3 -21 13 -40 22 -39 20 -73 39 -80 48 -13 14 -100 39 -137
39 -55 0 -132 -41 -163 -88 -22 -32 -25 -48 -25 -121 0 -59 4 -86 13 -89 6 -2
12 -8 12 -13 0 -11 45 -59 55 -59 3 0 31 -16 61 -35 30 -19 58 -35 62 -35 4 0
24 -11 44 -25 20 -14 57 -36 82 -50 26 -14 67 -37 94 -51 26 -14 49 -29 52
-34 3 -4 16 -11 30 -15 14 -4 27 -10 30 -14 5 -6 36 -25 85 -50 16 -9 32 -19
35 -22 3 -3 12 -8 20 -12 8 -3 38 -20 65 -37 28 -16 57 -33 65 -37 8 -3 17 -9
20 -13 3 -3 21 -14 40 -23 38 -19 72 -39 80 -47 3 -3 23 -14 45 -25 22 -11 42
-23 43 -27 2 -5 10 -8 18 -8 8 0 14 -3 14 -7 0 -5 20 -17 45 -28 25 -11 45
-23 45 -27 0 -5 6 -8 14 -8 8 0 16 -3 18 -7 2 -5 21 -17 43 -28 22 -11 42 -22
45 -25 3 -3 14 -10 25 -16 56 -30 91 -50 95 -54 5 -5 56 -34 105 -58 17 -8 48
-27 70 -42 22 -15 54 -34 70 -42 49 -25 100 -53 105 -58 3 -3 23 -14 45 -25
22 -11 42 -23 43 -27 2 -5 12 -8 22 -8 29 0 70 -22 70 -36 0 -8 6 -11 15 -8 9
4 15 0 15 -10 0 -9 7 -16 16 -16 8 0 30 -11 48 -25 18 -14 38 -25 44 -25 7 0
12 -4 12 -8 0 -4 12 -13 28 -19 37 -16 125 -66 161 -92 16 -12 33 -21 38 -21
4 0 25 -11 44 -25 20 -13 39 -21 43 -18 3 4 6 2 6 -4 0 -6 26 -23 58 -39 31
-16 59 -31 62 -34 3 -3 14 -10 25 -16 103 -56 144 -80 167 -95 14 -11 29 -19
33 -19 5 0 78 -43 131 -78 10 -7 27 -15 37 -18 9 -4 17 -9 17 -13 0 -4 20 -15
45 -25 25 -11 45 -23 45 -28 0 -4 7 -8 15 -8 8 0 15 -4 15 -10 0 -5 7 -10 15
-10 14 0 61 -25 75 -40 3 -3 19 -12 35 -20 17 -8 44 -25 61 -37 17 -13 36 -23
42 -23 7 0 12 -4 12 -10 0 -5 8 -10 19 -10 10 0 24 -6 30 -14 7 -8 36 -26 66
-41 30 -14 57 -31 60 -36 4 -5 11 -7 16 -4 5 4 9 2 9 -3 0 -5 8 -12 18 -15 17
-6 93 -48 102 -57 9 -9 85 -51 103 -57 9 -3 17 -9 17 -14 0 -5 6 -9 14 -9 7 0
19 -7 26 -15 11 -13 -203 -15 -1918 -15 -1297 0 -1933 -3 -1937 -10 -4 -6 -10
-8 -14 -6 -10 6 -85 -72 -96 -99 -5 -11 -9 -42 -11 -70 -5 -95 56 -173 162
-203 32 -9 581 -12 2289 -12 1668 0 2251 -3 2261 -11 8 -6 14 -9 14 -5 0 3 18
-5 40 -19 22 -14 44 -25 50 -25 5 0 10 -4 10 -9 0 -8 47 -39 125 -82 17 -9 50
-27 75 -41 25 -14 61 -34 80 -44 19 -11 37 -21 40 -24 6 -6 42 -26 85 -49 16
-9 32 -18 35 -21 3 -3 14 -10 25 -16 103 -56 144 -80 167 -95 14 -11 29 -19
33 -19 5 0 78 -43 131 -78 10 -7 27 -15 37 -18 9 -4 17 -10 17 -15 0 -5 9 -9
20 -9 11 0 20 -4 20 -10 0 -5 6 -10 14 -10 8 0 21 -6 28 -12 8 -7 23 -18 33
-24 73 -39 91 -50 95 -54 3 -3 14 -10 25 -16 56 -30 91 -50 95 -54 5 -5 56
-34 105 -58 17 -8 48 -27 70 -42 22 -15 54 -34 70 -42 49 -24 100 -53 105 -58
3 -3 14 -10 25 -16 57 -30 91 -50 95 -54 3 -3 23 -14 45 -25 22 -11 42 -22 45
-25 3 -3 14 -10 25 -16 56 -30 91 -50 95 -54 9 -9 85 -51 103 -57 9 -3 17 -9
17 -14 0 -5 6 -9 14 -9 8 0 21 -6 28 -12 7 -7 38 -26 68 -42 30 -16 57 -31 60
-35 3 -3 30 -19 60 -35 30 -16 57 -31 60 -35 5 -6 52 -33 130 -73 25 -13 50
-28 57 -34 6 -6 26 -17 45 -24 18 -8 35 -16 38 -19 7 -9 40 -28 80 -48 19 -9
41 -23 47 -29 7 -7 26 -18 43 -26 16 -7 30 -16 30 -20 0 -5 9 -8 20 -8 11 0
20 -4 20 -10 0 -5 11 -12 25 -16 14 -3 25 -10 25 -15 0 -5 6 -9 14 -9 8 0 16
-3 18 -7 2 -5 21 -17 43 -28 22 -11 42 -22 45 -25 3 -3 14 -10 25 -16 56 -30
91 -50 95 -54 3 -3 19 -12 35 -21 43 -23 79 -43 85 -49 3 -3 21 -13 40 -24 74
-40 126 -70 152 -87 14 -11 31 -19 36 -19 20 0 23 -20 5 -27 -10 -3 -29 -14
-43 -23 -25 -17 -80 -49 -150 -86 -19 -11 -37 -21 -40 -24 -6 -6 -42 -26 -85
-49 -16 -9 -32 -18 -35 -21 -10 -10 -45 -30 -82 -47 -21 -10 -38 -21 -38 -25
0 -5 -6 -8 -14 -8 -7 0 -19 -7 -26 -15 -7 -8 -21 -15 -31 -15 -11 0 -19 -4
-19 -10 0 -5 -7 -10 -15 -10 -8 0 -15 -4 -15 -9 0 -5 -10 -13 -22 -17 -13 -4
-25 -10 -28 -13 -3 -4 -21 -15 -40 -24 -37 -19 -72 -39 -80 -47 -3 -3 -14 -10
-25 -16 -56 -30 -91 -50 -95 -54 -3 -3 -21 -13 -40 -24 -58 -31 -111 -61 -180
-101 -64 -37 -113 -64 -180 -101 -19 -10 -37 -21 -40 -24 -6 -6 -42 -26 -85
-49 -16 -9 -32 -18 -35 -21 -4 -4 -39 -24 -95 -54 -11 -6 -22 -13 -25 -16 -3
-3 -23 -14 -45 -25 -22 -11 -41 -23 -43 -27 -2 -5 -10 -8 -18 -8 -8 0 -14 -3
-14 -7 0 -5 -20 -17 -45 -28 -25 -11 -45 -22 -45 -25 0 -3 -18 -14 -40 -24
-22 -11 -40 -23 -40 -28 0 -4 -9 -8 -20 -8 -11 0 -20 -4 -20 -9 0 -5 -11 -12
-25 -15 -14 -4 -25 -11 -25 -16 0 -6 -7 -10 -15 -10 -8 0 -15 -4 -15 -8 0 -4
-16 -14 -35 -21 -19 -7 -40 -18 -47 -24 -17 -16 -88 -57 -110 -64 -10 -3 -18
-9 -18 -13 0 -5 -13 -11 -30 -15 -16 -4 -30 -10 -30 -13 0 -4 -26 -20 -58 -37
-31 -16 -63 -35 -70 -42 -7 -7 -20 -13 -27 -13 -8 0 -17 -9 -20 -20 -4 -11
-11 -17 -17 -14 -6 4 -13 3 -17 -2 -8 -12 -48 -34 -61 -34 -6 0 -34 -16 -63
-35 -28 -19 -57 -35 -64 -35 -7 0 -13 -4 -13 -9 0 -5 -8 -11 -17 -14 -18 -6
-94 -48 -103 -57 -3 -3 -23 -14 -45 -25 -22 -11 -42 -22 -45 -25 -3 -3 -14
-10 -25 -16 -56 -30 -91 -50 -95 -54 -3 -3 -14 -10 -25 -16 -56 -30 -91 -50
-95 -54 -3 -3 -21 -13 -40 -24 -62 -33 -125 -68 -135 -76 -8 -6 -51 -30 -150
-84 -11 -6 -22 -14 -25 -17 -3 -3 -27 -17 -54 -32 l-49 -27 -252 0 c-190 0
-255 -3 -262 -12 -5 -7 -23 -49 -38 -93 -17 -45 -31 -72 -33 -62 -2 10 -11 17
-20 16 -9 -1 -20 -1 -24 0 -4 0 4 33 18 73 13 39 24 73 24 75 0 7 -3919 3
-3922 -4 -1 -5 -19 -16 -38 -26 -35 -18 -80 -74 -80 -101 0 -8 -5 -18 -10 -21
-13 -8 -13 -82 0 -90 6 -3 10 -16 10 -28 0 -44 124 -137 172 -128 4 0 850 1
1880 1 1206 0 1874 -3 1876 -10 2 -5 -9 -12 -25 -16 -15 -3 -49 -19 -74 -35
-25 -16 -49 -29 -53 -29 -5 0 -20 -8 -34 -19 -26 -17 -78 -47 -152 -87 -19
-11 -37 -21 -40 -24 -6 -6 -42 -26 -85 -49 -16 -9 -32 -18 -35 -21 -3 -3 -14
-10 -25 -16 -56 -30 -91 -50 -95 -54 -9 -9 -85 -51 -102 -57 -10 -3 -18 -9
-18 -14 0 -5 -6 -9 -14 -9 -8 0 -21 -6 -28 -12 -7 -7 -38 -26 -68 -42 -30 -16
-57 -32 -60 -35 -3 -4 -21 -15 -40 -24 -37 -19 -72 -39 -80 -47 -3 -3 -21 -13
-40 -23 -76 -38 -136 -72 -148 -84 -7 -6 -28 -17 -47 -24 -19 -7 -35 -16 -35
-20 0 -4 -26 -20 -57 -35 -32 -16 -64 -35 -71 -41 -7 -7 -20 -13 -28 -13 -8 0
-14 -3 -14 -7 0 -5 -10 -13 -23 -19 -35 -17 -92 -49 -97 -54 -3 -3 -14 -10
-25 -16 -56 -30 -91 -50 -95 -54 -3 -3 -14 -10 -25 -16 -57 -30 -91 -50 -95
-54 -3 -3 -24 -14 -47 -25 -24 -11 -43 -23 -43 -27 0 -5 -6 -8 -14 -8 -8 0
-16 -3 -18 -7 -1 -5 -21 -17 -43 -28 -22 -11 -42 -22 -45 -25 -5 -5 -17 -12
-120 -68 -25 -13 -49 -27 -55 -32 -10 -7 -69 -41 -135 -76 -19 -11 -37 -21
-40 -24 -3 -3 -14 -10 -25 -16 -56 -30 -91 -50 -95 -54 -3 -3 -14 -10 -25 -16
-64 -34 -91 -50 -95 -56 -3 -4 -17 -11 -30 -17 -14 -6 -43 -22 -65 -36 -22
-14 -47 -28 -55 -32 -8 -4 -38 -22 -67 -40 -29 -18 -55 -33 -58 -33 -4 0 -19
-8 -33 -19 -23 -15 -64 -39 -167 -95 -11 -6 -22 -13 -25 -16 -3 -3 -19 -12
-35 -21 -43 -23 -79 -43 -85 -49 -3 -3 -21 -13 -40 -24 -19 -10 -55 -30 -80
-44 -25 -14 -58 -32 -75 -41 -27 -15 -61 -35 -160 -94 -16 -10 -42 -23 -57
-30 -16 -6 -28 -15 -28 -19 0 -4 -7 -8 -15 -8 -8 0 -15 -3 -15 -7 0 -5 -19
-17 -43 -28 -23 -11 -44 -22 -47 -25 -3 -3 -14 -10 -25 -16 -60 -32 -91 -50
-95 -55 -3 -3 -12 -8 -20 -12 -36 -16 -80 -50 -80 -62 0 -4 -9 -20 -21 -36
-25 -36 -30 -134 -8 -177 39 -79 149 -134 224 -112 22 6 54 19 70 27 68 36
121 65 130 73 10 7 69 41 135 76 19 11 37 21 40 24 3 3 14 10 25 16 56 30 91
50 95 54 3 3 14 10 25 16 56 30 91 50 95 54 10 10 45 30 83 47 20 10 37 21 37
25 0 5 6 8 14 8 8 0 21 6 28 13 7 7 29 21 48 30 38 19 72 39 80 47 3 3 19 12
35 21 43 23 79 43 85 49 3 3 21 13 40 24 19 10 54 29 78 42 23 13 63 36 90 50
26 14 52 29 57 34 10 7 69 41 135 76 19 11 37 21 40 24 6 6 42 26 85 49 16 9
32 18 35 21 3 3 14 10 25 16 57 30 91 50 95 54 3 3 23 14 45 25 22 11 42 23
43 28 2 4 10 7 18 7 8 0 14 3 14 8 0 4 20 16 45 27 25 11 45 22 45 25 0 3 14
11 30 18 17 8 36 19 43 25 6 7 38 25 70 41 31 15 57 32 57 36 0 5 13 11 29 15
15 3 37 14 47 23 11 9 39 27 64 40 78 40 125 67 130 73 3 4 30 19 60 35 30 16
61 35 68 42 7 6 20 12 28 12 8 0 14 3 14 8 0 4 10 12 23 18 35 17 92 49 97 54
3 3 14 10 25 16 56 30 91 50 95 54 3 3 14 10 25 16 56 30 91 50 95 54 3 3 23
14 45 25 22 11 42 22 45 25 3 3 14 10 25 16 56 30 91 50 95 54 5 5 17 12 120
68 25 13 50 27 55 32 10 7 69 41 135 76 19 11 37 21 40 24 3 3 14 10 25 16 56
30 91 50 95 54 3 3 14 10 25 16 61 33 91 50 95 55 3 3 23 14 45 25 22 10 42
21 45 24 3 4 12 9 20 13 15 7 28 15 80 48 36 23 120 69 126 69 3 0 -4 -13 -15
-29 -12 -16 -21 -32 -21 -36 0 -3 -16 -30 -35 -60 -19 -30 -32 -55 -29 -55 3
0 -8 -19 -24 -42 -16 -24 -39 -63 -51 -88 -21 -45 -42 -81 -51 -90 -3 -3 -10
-14 -16 -25 -30 -56 -50 -91 -54 -95 -3 -3 -10 -14 -16 -25 -30 -56 -50 -91
-54 -95 -5 -5 -37 -62 -54 -97 -6 -13 -14 -23 -18 -23 -5 0 -8 -6 -8 -14 0 -8
-6 -21 -12 -28 -7 -7 -26 -38 -42 -68 -16 -30 -32 -57 -35 -60 -4 -3 -15 -23
-25 -45 -11 -22 -26 -51 -36 -65 -9 -14 -32 -54 -51 -90 -18 -36 -57 -101 -85
-146 -28 -45 -60 -99 -70 -120 -10 -21 -24 -45 -31 -52 -7 -7 -13 -20 -13 -28
0 -8 -3 -14 -8 -14 -4 0 -15 -17 -25 -37 -17 -38 -37 -73 -47 -83 -3 -3 -10
-14 -16 -25 -30 -56 -50 -91 -54 -95 -3 -3 -10 -14 -16 -25 -30 -56 -50 -91
-54 -95 -3 -3 -13 -21 -24 -40 -35 -65 -69 -125 -76 -135 -4 -5 -20 -32 -35
-60 -16 -27 -31 -52 -35 -55 -3 -3 -14 -23 -25 -45 -10 -22 -28 -56 -40 -75
-39 -61 -79 -135 -76 -139 1 -2 -1 -7 -6 -10 -4 -3 -13 -15 -19 -26 -33 -62
-50 -91 -60 -101 -6 -7 -23 -36 -38 -66 -29 -58 -48 -90 -57 -98 -3 -3 -14
-22 -25 -43 -36 -73 -39 -77 -46 -77 -5 0 -8 -9 -8 -20 0 -11 -3 -20 -8 -20
-4 0 -16 -17 -27 -37 -11 -21 -22 -40 -25 -43 -3 -3 -14 -24 -25 -47 -11 -24
-23 -43 -27 -43 -5 0 -8 -6 -8 -14 0 -8 -3 -16 -7 -18 -5 -1 -17 -21 -28 -43
-11 -22 -22 -42 -25 -45 -3 -3 -10 -14 -16 -25 -15 -28 -45 -87 -55 -107 -26
-53 0 -146 55 -201 43 -43 138 -77 167 -59 10 7 28 12 39 12 24 0 120 86 120
106 0 8 4 14 8 14 4 0 13 12 19 28 11 25 48 91 79 139 16 26 46 79 87 153 16
30 37 66 46 80 10 14 27 44 39 67 27 53 46 87 52 93 3 3 10 14 16 25 30 56 50
91 54 95 9 9 51 85 57 103 3 9 9 17 14 17 5 0 9 6 9 14 0 8 6 21 13 28 6 7 25
38 41 68 16 30 32 57 35 60 4 3 15 21 24 40 20 39 39 73 48 80 3 3 13 21 22
40 19 37 39 72 47 80 3 3 13 21 22 40 10 19 24 44 30 55 48 74 77 125 72 125
-3 0 8 19 24 43 16 23 39 62 51 87 21 45 42 81 51 90 3 3 10 14 16 25 30 56
50 91 54 95 3 3 10 14 16 25 30 56 50 91 54 95 3 3 12 19 21 35 23 43 43 79
49 85 5 5 34 56 58 105 8 17 28 49 44 72 15 23 28 45 28 49 0 4 13 28 28 53
45 72 80 135 80 145 0 5 4 12 9 15 8 6 22 29 59 97 12 22 33 58 46 80 14 21
27 46 31 54 8 19 30 53 38 60 3 3 13 21 22 40 20 39 39 73 48 80 3 3 14 22 25
43 36 73 39 77 46 77 5 0 8 7 8 15 0 17 48 98 61 103 5 2 9 12 9 22 0 9 7 23
15 30 8 7 15 19 15 26 0 8 4 14 9 14 5 0 11 8 14 18 8 24 50 96 60 100 4 2 7
8 7 14 0 6 10 27 22 47 13 20 23 38 23 41 0 3 16 30 36 60 19 30 42 69 51 85
29 57 53 100 59 105 3 3 8 12 12 20 23 54 78 137 96 145 11 5 21 13 21 17 0 5
7 8 15 8 8 0 15 3 15 8 0 4 19 16 43 27 23 11 44 22 47 25 8 8 42 28 80 47 19
9 37 19 40 22 7 9 41 28 80 48 19 9 37 20 40 23 3 4 12 9 20 13 8 4 24 13 35
19 46 30 123 75 210 122 11 6 22 13 25 16 3 3 21 13 40 24 19 10 53 29 75 41
22 12 62 35 90 50 27 15 61 35 75 44 14 10 39 25 55 33 48 24 100 53 105 58 6
6 42 26 85 49 16 9 32 18 35 21 3 3 14 10 25 16 56 30 91 50 95 54 9 9 85 51
103 57 9 3 17 9 17 14 0 5 6 9 14 9 8 0 21 6 28 13 7 6 38 25 68 41 30 16 57
32 60 35 3 4 21 15 40 24 37 19 72 39 80 47 3 3 21 13 40 23 19 9 62 33 95 52
33 18 78 44 100 57 22 12 49 28 60 34 11 7 36 21 55 30 19 10 37 21 40 24 3 4
28 19 55 35 28 15 55 31 60 35 9 6 48 29 150 84 11 6 22 13 25 16 3 3 14 10
25 16 56 30 91 50 95 54 3 3 14 10 25 16 56 30 91 50 95 54 3 3 23 14 45 25
22 11 42 22 45 25 3 3 21 13 40 24 70 37 126 69 150 86 14 9 39 24 55 32 48
24 100 53 105 58 9 9 85 51 103 57 9 3 17 9 17 14 0 5 6 9 14 9 7 0 19 7 26
15 7 8 21 15 31 15 11 0 19 5 19 10 0 6 7 10 15 10 8 0 15 3 15 8 0 4 9 12 19
17 11 6 36 19 58 30 21 10 44 25 51 32 7 7 19 13 27 13 7 0 15 6 18 13 2 6 7
9 11 6 8 -7 8 -3990 0 -4015 -9 -29 -37 -86 -55 -114 -14 -21 -42 -71 -93
-165 -6 -11 -13 -22 -16 -25 -8 -8 -28 -43 -47 -80 -9 -19 -19 -37 -22 -40 -9
-7 -28 -40 -48 -80 -9 -19 -23 -41 -30 -48 -7 -7 -13 -20 -13 -28 0 -8 -4 -14
-10 -14 -5 0 -10 -7 -10 -15 0 -8 -4 -15 -10 -15 -5 0 -10 -8 -10 -19 0 -10
-7 -24 -15 -31 -8 -7 -15 -19 -15 -26 0 -8 -3 -14 -8 -14 -4 0 -15 -17 -25
-37 -17 -38 -37 -73 -47 -83 -3 -3 -12 -19 -21 -35 -23 -43 -43 -79 -49 -85
-3 -3 -13 -21 -24 -40 -40 -75 -70 -126 -88 -153 -11 -15 -17 -27 -13 -27 3 0
-7 -19 -23 -42 -15 -24 -38 -62 -50 -85 -27 -53 -46 -87 -52 -93 -3 -3 -10
-14 -16 -25 -30 -56 -50 -91 -54 -95 -9 -9 -51 -85 -57 -103 -3 -9 -9 -17 -14
-17 -5 0 -9 -6 -9 -14 0 -8 -6 -21 -12 -28 -7 -7 -26 -38 -42 -68 -16 -30 -32
-57 -35 -60 -4 -3 -15 -21 -24 -40 -20 -39 -39 -73 -48 -80 -3 -3 -13 -21 -22
-40 -10 -19 -23 -44 -30 -55 -57 -92 -77 -126 -77 -130 0 -3 -12 -24 -26 -47
-25 -39 -37 -60 -100 -175 -52 -96 -59 -108 -64 -113 -4 -4 -24 -39 -54 -95
-6 -11 -13 -22 -16 -25 -3 -3 -10 -14 -16 -25 -30 -56 -50 -91 -54 -95 -3 -3
-12 -19 -21 -35 -23 -43 -43 -79 -49 -85 -3 -3 -13 -21 -24 -40 -40 -74 -70
-126 -87 -152 -11 -14 -19 -31 -19 -36 0 -6 -6 -17 -12 -24 -15 -15 -34 -48
-57 -93 -8 -16 -17 -32 -21 -35 -3 -3 -17 -27 -29 -53 -13 -26 -28 -53 -35
-60 -14 -15 -49 -76 -82 -142 -26 -53 -45 -87 -55 -95 -3 -3 -13 -21 -22 -40
-19 -37 -39 -72 -47 -80 -3 -3 -10 -14 -16 -25 -31 -59 -50 -91 -55 -95 -19
-18 -43 -93 -44 -140 -2 -72 31 -138 87 -175 34 -22 51 -27 109 -27 60 0 73 4
114 32 26 18 49 39 52 48 4 10 14 28 23 42 15 21 40 65 94 165 6 11 13 22 16
25 3 3 10 14 16 25 30 56 50 91 54 95 3 3 10 14 16 25 30 56 50 91 54 95 3 3
12 19 21 35 23 43 43 79 49 85 3 3 13 21 24 40 40 75 69 125 76 130 3 3 16 26
28 51 11 26 27 53 34 60 7 8 22 33 32 57 11 23 22 42 26 42 7 0 21 37 19 49 0
2 3 7 8 10 10 7 27 35 50 81 9 19 20 37 24 40 3 3 19 30 35 60 16 30 35 61 42
68 6 7 12 20 12 28 0 8 3 14 8 14 4 0 15 17 25 38 17 37 37 72 47 82 3 3 10
14 16 25 30 56 50 91 54 95 3 3 10 14 16 25 30 56 50 91 54 95 3 3 13 21 24
40 40 74 70 126 87 152 11 14 19 29 19 34 0 4 13 28 28 53 47 75 86 146 83
150 -1 2 1 7 6 10 8 6 24 32 52 86 9 16 18 32 21 35 9 9 51 85 57 102 3 10 9
18 14 18 5 0 9 6 9 14 0 8 6 21 13 28 7 7 21 29 30 48 20 40 39 73 48 80 3 3
13 21 22 40 20 39 39 73 48 80 3 3 13 21 22 40 19 38 39 72 47 80 3 3 14 24
25 47 11 24 23 43 28 43 4 0 7 7 7 15 0 8 3 15 8 15 4 0 16 20 27 45 11 25 23
45 27 45 5 0 8 5 8 10 0 6 12 29 26 52 27 43 62 104 98 173 l21 40 5 -2331 c5
-2203 6 -2333 23 -2351 9 -11 17 -23 17 -28 0 -4 10 -16 23 -27 43 -38 81 -51
143 -51 103 1 166 57 193 173 9 44 11 531 9 2333 -2 1252 -1 2277 2 2277 3 0
11 -12 17 -27 7 -16 28 -55 48 -88 20 -33 39 -68 42 -78 3 -9 9 -17 14 -17 5
0 8 -3 7 -7 -2 -8 31 -69 84 -154 15 -25 28 -49 28 -53 0 -4 16 -30 35 -59 19
-28 35 -55 35 -59 0 -4 16 -32 35 -62 19 -30 35 -60 35 -66 0 -5 3 -10 8 -10
4 0 16 -19 27 -43 11 -23 22 -44 25 -47 3 -3 10 -14 16 -25 30 -56 50 -91 54
-95 3 -3 10 -14 16 -25 30 -56 50 -91 54 -95 8 -8 28 -43 47 -80 9 -19 19 -37
22 -40 9 -8 27 -39 62 -108 18 -34 36 -62 40 -62 4 0 10 -13 14 -29 3 -16 13
-35 20 -41 8 -6 24 -33 37 -58 12 -26 26 -51 30 -57 14 -17 78 -127 95 -165
10 -19 20 -37 24 -40 3 -3 19 -30 35 -60 16 -30 32 -57 35 -60 4 -3 19 -30 35
-60 16 -30 35 -61 42 -68 6 -7 12 -20 12 -28 0 -8 4 -14 9 -14 5 0 11 -8 14
-17 8 -25 50 -97 60 -101 18 -9 4 -39 -28 -59 -41 -27 -49 -28 -41 -8 3 8 1
14 -5 12 -5 -1 -19 16 -32 38 -12 22 -24 42 -27 45 -7 7 -29 47 -57 102 -13
26 -29 53 -36 60 -7 7 -23 33 -35 58 -12 25 -35 66 -50 91 -64 109 -82 142
-82 149 0 5 -4 10 -8 12 -8 3 -72 112 -102 173 -8 17 -17 32 -21 35 -3 3 -18
28 -34 55 -15 28 -31 55 -35 60 -6 9 -29 48 -84 150 -6 11 -13 22 -16 25 -3 3
-10 14 -16 25 -30 56 -50 91 -54 95 -3 3 -10 14 -16 25 -30 56 -50 91 -54 95
-3 3 -13 21 -24 40 -10 19 -29 54 -42 78 -13 23 -36 63 -50 90 -14 26 -29 52
-34 57 -7 10 -41 69 -76 135 -11 19 -22 37 -25 40 -3 3 -8 13 -12 23 -4 10
-11 15 -17 12 -7 -4 -10 -717 -10 -2135 0 -1445 -3 -2131 -10 -2135 -6 -4 -10
-12 -9 -18 2 -19 -13 -57 -22 -57 -5 0 -9 -6 -9 -13 0 -18 -67 -87 -85 -87 -8
0 -15 -3 -15 -8 0 -4 -15 -13 -32 -20 -18 -7 -41 -18 -50 -23 -22 -12 -113
-12 -136 0 -9 5 -37 19 -62 30 -54 27 -77 45 -111 92 -57 75 -54 -57 -59 2237
-3 1359 -8 2122 -15 2123 -8 1 -55 -73 -87 -141 -7 -14 -15 -27 -18 -30 -3 -3
-10 -14 -16 -25 -30 -56 -50 -91 -54 -95 -10 -10 -30 -45 -47 -82 -10 -21 -21
-38 -25 -38 -5 0 -8 -6 -8 -14 0 -8 -6 -21 -13 -28 -7 -7 -21 -29 -30 -48 -20
-40 -39 -73 -48 -80 -3 -3 -13 -21 -22 -40 -19 -37 -39 -72 -47 -80 -3 -3 -10
-14 -16 -25 -30 -56 -50 -91 -54 -95 -3 -3 -13 -21 -24 -40 -35 -66 -69 -125
-76 -135 -5 -5 -20 -31 -34 -57 -14 -27 -38 -69 -52 -95 -14 -26 -35 -60 -46
-75 -10 -15 -16 -28 -11 -28 4 0 4 -4 -2 -8 -5 -4 -15 -16 -21 -27 -30 -56
-50 -91 -54 -95 -3 -3 -10 -14 -16 -25 -30 -56 -50 -91 -54 -95 -3 -3 -13 -21
-24 -40 -46 -87 -70 -125 -78 -128 -4 -2 -8 -12 -8 -23 0 -10 -3 -19 -8 -19
-4 0 -13 -14 -20 -30 -8 -17 -19 -36 -25 -43 -12 -12 -29 -42 -89 -154 -18
-35 -36 -63 -40 -63 -5 0 -8 -6 -8 -14 0 -8 -3 -16 -7 -18 -5 -1 -17 -21 -28
-43 -11 -22 -22 -42 -25 -45 -3 -3 -14 -21 -24 -40 -10 -19 -35 -62 -54 -95
-19 -33 -46 -80 -59 -105 -48 -88 -58 -105 -63 -110 -3 -3 -10 -14 -16 -25
-30 -56 -50 -91 -54 -95 -3 -3 -10 -14 -16 -25 -56 -103 -80 -144 -95 -167
-11 -14 -19 -29 -19 -33 0 -9 -64 -106 -86 -131 -34 -38 -162 -94 -214 -94
-50 0 -163 48 -199 83 -74 76 -96 128 -96 227 1 60 6 85 26 125 30 59 52 98
59 105 9 9 51 85 57 103 3 9 9 17 14 17 5 0 9 6 9 14 0 8 6 21 13 28 6 7 25
38 41 68 16 30 31 57 35 60 3 3 19 30 35 60 16 30 32 57 35 60 4 3 15 21 25
40 31 63 82 150 94 162 7 7 12 18 12 25 0 7 4 13 8 13 4 0 13 12 19 27 7 16
30 60 52 98 23 39 48 86 58 105 9 19 23 41 30 48 7 7 13 20 13 28 0 8 4 14 9
14 5 0 11 8 14 18 6 17 48 93 57 102 3 3 10 14 16 25 30 56 50 91 54 95 3 3
10 14 16 25 56 103 80 144 95 167 11 14 19 29 19 33 0 3 16 31 35 61 19 30 35
56 35 58 0 2 23 43 52 92 51 88 77 136 114 204 11 19 21 37 24 40 3 3 10 14
16 25 33 62 50 91 60 101 6 7 23 36 38 66 29 58 48 90 57 98 3 3 13 21 22 40
19 37 39 72 47 80 3 3 10 14 16 25 30 56 50 91 54 95 3 3 14 23 25 45 11 22
22 42 25 45 9 9 51 85 57 103 3 9 9 17 14 17 5 0 9 5 9 10 0 6 16 36 35 66 19
30 35 57 35 61 0 3 13 27 28 52 47 75 86 146 83 150 -1 2 1 7 6 10 8 6 24 32
52 86 9 16 18 32 21 35 3 3 10 14 16 25 59 108 78 140 85 143 5 2 9 12 9 23 0
10 4 19 9 19 5 0 12 8 15 18 13 32 31 62 38 62 5 0 8 9 8 20 0 11 4 20 9 20 5
0 12 8 15 17 13 33 31 63 38 63 5 0 8 9 8 20 0 11 4 20 8 20 4 0 13 12 19 28
7 15 24 45 38 67 14 22 28 48 31 58 4 9 10 17 15 17 5 0 9 834 9 1920 0 1530
-3 1920 -12 1920 -7 0 -33 -14 -58 -30 -25 -16 -49 -30 -53 -30 -5 0 -21 -8
-35 -19 -26 -17 -78 -47 -152 -87 -19 -11 -37 -21 -40 -24 -3 -3 -14 -10 -25
-16 -56 -30 -91 -50 -95 -54 -3 -3 -14 -10 -25 -16 -56 -30 -91 -50 -95 -54
-9 -9 -85 -51 -102 -57 -10 -3 -18 -9 -18 -14 0 -5 -6 -9 -14 -9 -8 0 -21 -6
-28 -13 -7 -7 -30 -22 -51 -32 -22 -11 -47 -24 -58 -30 -10 -5 -19 -13 -19
-17 0 -5 -6 -8 -14 -8 -18 0 -76 -32 -76 -42 0 -5 -7 -8 -15 -8 -8 0 -15 -4
-15 -8 0 -4 -12 -13 -27 -19 -38 -16 -126 -66 -162 -92 -16 -12 -33 -21 -38
-21 -4 0 -28 -14 -53 -30 -25 -16 -51 -30 -57 -30 -7 0 -22 -8 -32 -17 -20
-17 -115 -73 -161 -95 -14 -7 -27 -15 -30 -18 -4 -4 -38 -23 -95 -54 -11 -6
-22 -13 -25 -16 -3 -3 -14 -10 -25 -16 -56 -30 -91 -50 -95 -54 -3 -3 -21 -13
-40 -24 -66 -35 -125 -69 -135 -76 -10 -8 -88 -52 -140 -78 -16 -8 -41 -23
-55 -32 -24 -17 -80 -49 -150 -86 -19 -11 -37 -21 -40 -24 -3 -3 -14 -10 -25
-16 -58 -31 -91 -50 -95 -54 -14 -15 -61 -40 -75 -40 -8 0 -15 -4 -15 -9 0 -5
-8 -11 -17 -15 -18 -5 -53 -26 -63 -36 -3 -3 -14 -10 -25 -16 -56 -30 -91 -50
-95 -54 -3 -3 -14 -10 -25 -16 -103 -56 -144 -80 -167 -95 -14 -11 -29 -19
-32 -19 -4 0 -25 -12 -48 -26 -23 -14 -60 -36 -82 -48 -86 -47 -142 -80 -168
-98 -16 -11 -28 -16 -28 -13 0 9 -62 -36 -82 -60 -10 -11 -17 -26 -18 -32 0
-7 -3 -13 -8 -13 -4 0 -15 -17 -25 -37 -17 -38 -37 -73 -47 -83 -5 -5 -37 -62
-54 -97 -6 -13 -14 -23 -18 -23 -5 0 -8 -7 -8 -16 0 -8 -11 -30 -25 -48 -14
-18 -25 -36 -25 -40 0 -4 -16 -32 -35 -62 -19 -30 -35 -57 -35 -61 0 -3 -14
-29 -32 -56 -18 -28 -33 -57 -35 -65 -1 -9 -11 -28 -22 -43 -12 -16 -21 -33
-21 -39 0 -5 -4 -10 -9 -10 -5 0 -11 -8 -14 -17 -6 -18 -48 -94 -57 -103 -9
-9 -51 -85 -57 -103 -3 -9 -9 -17 -14 -17 -5 0 -9 -6 -9 -14 0 -8 -6 -21 -12
-28 -7 -7 -26 -38 -42 -68 -16 -30 -31 -57 -35 -60 -3 -3 -19 -30 -35 -60 -16
-30 -32 -57 -35 -60 -4 -3 -15 -21 -25 -40 -31 -63 -82 -150 -94 -162 -7 -7
-12 -18 -12 -25 0 -7 -4 -13 -8 -13 -4 0 -13 -15 -20 -34 -7 -18 -32 -64 -57
-102 -24 -38 -45 -73 -45 -77 0 -5 -14 -28 -30 -53 -17 -24 -27 -44 -23 -44 4
0 4 -4 -2 -8 -5 -4 -15 -16 -21 -27 -30 -56 -50 -91 -54 -95 -3 -3 -10 -14
-16 -25 -30 -56 -50 -91 -54 -95 -3 -3 -10 -14 -16 -25 -30 -56 -50 -91 -54
-95 -3 -3 -13 -21 -24 -40 -40 -75 -69 -125 -76 -130 -3 -3 -14 -21 -23 -40
-20 -39 -39 -73 -48 -80 -3 -3 -13 -23 -23 -45 -11 -22 -22 -42 -25 -45 -4 -3
-20 -31 -36 -62 -17 -32 -33 -58 -37 -58 -5 0 -8 -4 -8 -10 0 -5 -14 -32 -31
-60 -40 -65 -73 -123 -104 -185 -26 -52 -46 -86 -55 -95 -3 -3 -10 -14 -16
-25 -30 -56 -50 -91 -54 -95 -3 -3 -12 -18 -21 -35 -10 -16 -31 -55 -49 -85
-17 -30 -34 -63 -37 -72 -3 -10 -9 -18 -14 -18 -5 0 -9 -5 -9 -10 0 -6 -16
-36 -35 -66 -19 -30 -35 -57 -35 -59 0 -3 -12 -24 -26 -47 -14 -23 -36 -60
-48 -82 -47 -85 -79 -142 -97 -168 -11 -14 -19 -30 -19 -35 0 -17 -87 -92
-127 -109 -21 -9 -46 -20 -55 -25 -23 -12 -135 -12 -142 0 -3 4 -21 11 -40 14
-54 9 -116 67 -159 148 -23 45 -27 66 -27 131 0 82 5 95 105 268 40 69 71 123
101 180 11 19 21 37 24 40 3 3 10 14 16 25 30 56 50 91 54 95 8 8 28 43 56 98
15 30 32 59 38 65 7 7 20 28 29 47 20 40 39 73 48 80 3 3 13 21 22 40 19 37
39 72 47 80 3 3 12 19 21 35 23 43 43 79 49 85 3 3 13 21 24 40 35 66 69 125
76 135 5 6 20 31 34 58 14 26 37 66 50 90 13 23 32 58 42 77 11 19 21 37 24
40 3 3 10 14 16 25 30 56 50 91 54 95 3 3 10 14 16 25 30 56 50 91 54 95 3 3
13 21 24 40 38 72 69 125 75 130 3 3 19 30 35 60 16 30 31 57 35 60 6 5 26 40
83 148 18 34 36 62 40 62 5 0 8 6 8 14 0 8 3 16 8 18 4 2 24 37 45 78 42 85
82 157 121 218 14 23 26 45 26 48 0 4 11 22 25 40 14 18 25 37 25 43 0 6 4 11
9 11 5 0 11 8 14 18 8 24 50 96 60 100 4 2 7 10 7 18 0 14 46 94 60 104 3 3 9
13 13 22 5 13 2 15 -11 9 -9 -4 -32 -14 -49 -22 -18 -7 -33 -16 -33 -20 0 -9
-85 -59 -100 -59 -7 0 -24 -8 -38 -19 -26 -17 -78 -47 -152 -87 -19 -11 -37
-21 -40 -24 -3 -3 -14 -10 -25 -16 -56 -30 -91 -50 -95 -54 -3 -3 -14 -10 -25
-16 -56 -30 -91 -50 -95 -54 -3 -3 -21 -13 -40 -24 -66 -35 -125 -69 -135 -76
-5 -5 -31 -20 -57 -34 -27 -14 -69 -38 -95 -52 -27 -14 -52 -29 -58 -34 -10
-7 -69 -41 -135 -76 -19 -11 -37 -21 -40 -24 -8 -8 -43 -28 -80 -47 -19 -9
-37 -20 -40 -23 -12 -14 -61 -40 -75 -40 -8 0 -15 -4 -15 -8 0 -5 -17 -17 -37
-28 -21 -10 -40 -21 -43 -24 -3 -3 -14 -10 -25 -16 -56 -30 -91 -50 -95 -54
-3 -3 -14 -10 -25 -16 -56 -30 -91 -50 -95 -54 -3 -3 -21 -13 -40 -24 -66 -35
-125 -69 -135 -76 -5 -5 -31 -20 -57 -34 -27 -14 -67 -37 -90 -50 -24 -13 -65
-36 -91 -50 -26 -14 -65 -37 -85 -51 -20 -14 -42 -25 -49 -25 -7 0 -13 -4 -13
-9 0 -5 -8 -11 -17 -14 -18 -6 -94 -48 -103 -57 -3 -3 -14 -10 -25 -16 -57
-30 -91 -50 -95 -54 -3 -3 -24 -14 -47 -25 -24 -11 -43 -23 -43 -27 0 -5 -5
-8 -10 -8 -6 0 -34 -15 -63 -33 -29 -18 -59 -36 -67 -40 -8 -4 -37 -21 -65
-37 -27 -17 -57 -34 -65 -37 -8 -4 -17 -9 -20 -12 -3 -3 -14 -11 -25 -17 -56
-30 -91 -50 -95 -54 -3 -3 -19 -12 -35 -21 -43 -23 -79 -43 -85 -49 -3 -3 -21
-13 -40 -24 -19 -10 -55 -30 -80 -44 -25 -13 -63 -35 -86 -47 -22 -13 -59 -35
-82 -49 -23 -14 -44 -26 -47 -26 -2 0 -28 -15 -57 -33 -29 -18 -66 -39 -83
-47 -16 -8 -33 -19 -37 -25 -4 -5 -49 -10 -101 -10 -78 0 -101 4 -138 23 -65
34 -103 71 -134 132 -15 30 -32 63 -36 72 -12 24 -11 115 1 123 6 3 10 14 10
24 0 29 29 80 69 119 51 52 82 73 176 120 17 8 41 23 55 33 14 9 48 29 75 44
114 62 134 74 173 99 23 14 44 26 48 26 3 0 18 8 32 19 23 15 64 39 167 95 11
6 22 13 25 16 3 3 14 10 25 16 56 30 91 50 95 54 3 3 19 12 35 21 43 23 79 43
85 49 3 3 21 13 40 24 19 10 55 29 80 43 24 13 47 27 50 31 3 4 24 16 47 27
24 11 43 22 43 25 0 3 20 14 45 25 25 11 45 23 45 28 0 4 5 7 10 7 6 0 39 18
74 40 35 22 66 40 69 40 4 0 31 16 61 35 30 19 58 35 61 35 4 0 19 8 33 19 26
17 78 47 152 87 19 11 37 21 40 24 3 3 14 10 25 16 56 30 91 50 95 54 3 3 14
10 25 16 56 30 91 50 95 54 5 5 57 34 105 58 17 8 41 23 55 33 14 9 48 29 75
44 28 15 70 39 95 52 25 14 50 28 55 33 10 7 69 41 135 76 19 11 37 21 40 24
3 3 14 10 25 16 58 31 91 50 95 54 14 15 61 40 75 40 8 0 15 5 15 10 0 6 7 10
15 10 8 0 15 4 15 9 0 5 10 13 23 17 12 4 24 9 27 13 3 3 14 11 25 17 56 30
91 50 95 54 3 3 14 10 25 16 56 30 91 50 95 54 3 3 21 13 40 24 66 35 125 69
135 76 6 5 30 19 55 33 25 13 67 37 95 52 27 15 61 35 75 44 14 10 41 26 60
35 47 22 75 44 67 52 -3 4 -768 6 -1698 5 -1706 -2 -1779 -1 -1779 31 0 4 -6
8 -14 8 -20 0 -116 95 -116 114 0 9 -4 16 -10 16 -5 0 -10 9 -10 19 0 11 -4
23 -10 26 -13 8 -13 162 -1 170 5 3 12 18 16 34 9 42 75 113 137 147 l53 29
1985 3 1985 3 48 149 48 150 33 0 34 0 -44 -142 c-33 -107 -41 -144 -31 -150
6 -4 107 -8 222 -8 l210 0 55 29 c87 45 144 77 188 105 23 14 46 26 52 26 5 0
10 3 10 8 0 4 10 12 23 18 35 16 139 75 167 94 14 9 32 20 40 23 8 4 33 18 55
32 22 14 49 30 60 35 11 6 43 24 70 41 28 16 58 33 68 36 9 3 17 9 17 14 0 5
7 9 15 9 8 0 15 5 15 10 0 6 5 10 11 10 14 0 39 25 39 39 0 7 -30 11 -77 12
-43 0 -100 4 -128 9 -37 5 -8 8 108 9 103 1 156 -2 152 -9 -3 -5 -2 -10 4 -10
5 0 11 3 13 8 2 4 28 19 58 34 30 16 97 53 149 83 52 30 98 55 102 55 4 0 12
6 16 14 4 8 28 24 53 36 25 12 54 27 65 33 11 6 33 18 50 26 16 9 32 18 35 21
3 3 14 10 25 16 56 30 91 50 95 54 3 3 14 10 25 16 56 30 91 50 95 54 3 3 21
13 40 24 63 33 124 69 150 85 14 9 42 25 63 35 20 11 37 22 37 26 0 5 12 11
26 14 15 4 43 18 63 32 19 13 41 24 48 24 7 0 13 5 13 10 0 6 4 10 10 10 8 0
36 16 135 77 11 7 36 20 55 30 19 9 37 19 40 22 7 9 40 28 80 48 19 9 41 23
48 30 7 7 20 13 28 13 8 0 14 5 14 10 0 6 9 10 20 10 11 0 20 3 20 8 0 4 17
16 38 27 20 11 39 22 42 25 3 3 14 10 25 16 56 30 91 50 95 54 3 3 19 12 35
21 43 23 79 43 85 49 3 3 21 13 40 24 19 10 54 29 78 42 23 13 62 35 86 48 24
13 61 35 82 48 75 46 99 59 127 71 15 6 27 15 27 19 0 4 7 8 15 8 8 0 15 7 15
15 0 8 -7 15 -15 15 -8 0 -15 5 -15 10 0 6 -6 10 -13 10 -7 0 -29 11 -49 25
-20 14 -57 36 -83 50 -25 13 -65 36 -90 50 -25 14 -66 37 -92 51 -27 14 -52
29 -58 34 -10 7 -69 41 -135 76 -19 11 -37 21 -40 24 -3 3 -14 10 -25 16 -56
30 -91 50 -95 54 -4 4 -39 24 -95 54 -11 6 -22 13 -25 16 -3 3 -22 14 -42 24
-21 11 -38 23 -38 28 0 4 -7 8 -15 8 -9 0 -34 12 -57 26 -23 14 -61 37 -85 50
-23 13 -64 36 -90 50 -26 14 -59 34 -73 43 -14 10 -38 25 -55 33 -48 24 -100
53 -105 58 -8 8 -43 28 -80 47 -19 9 -37 19 -40 22 -7 9 -40 28 -80 48 -19 9
-41 23 -48 30 -7 7 -20 13 -28 13 -8 0 -14 4 -14 9 0 5 -8 11 -17 14 -18 6
-94 48 -103 57 -3 3 -14 10 -25 16 -56 30 -91 50 -95 54 -3 3 -21 13 -40 24
-74 40 -126 70 -152 87 -14 11 -30 19 -35 19 -4 0 -25 11 -45 25 -20 14 -57
36 -82 50 -26 14 -65 36 -88 49 -24 13 -59 32 -78 42 -19 11 -37 21 -40 24 -6
6 -42 26 -85 49 -16 9 -32 18 -35 21 -3 3 -14 10 -25 16 -57 31 -91 50 -95 54
-3 3 -16 11 -30 17 -14 7 -43 24 -65 38 -22 14 -47 28 -55 32 -8 3 -17 9 -20
13 -3 3 -21 14 -40 23 -37 19 -72 39 -80 47 -3 3 -14 10 -25 16 -11 6 -47 26
-80 44 -33 18 -69 38 -80 44 -11 6 -22 13 -25 16 -3 3 -14 10 -25 16 -56 30
-91 50 -95 54 -3 3 -20 13 -38 23 -32 16 -161 17 -2297 17 -1270 0 -2266 4
-2269 9 -3 4 -23 11 -43 15 -87 15 -184 157 -185 271 0 36 14 105 22 105 4 0
10 14 14 31 3 16 26 51 50 77 42 44 72 60 167 90 26 9 481 12 1733 12 933 0
1695 3 1692 8 -2 4 -34 23 -71 42 -36 19 -75 43 -85 53 -11 9 -24 17 -30 17
-6 0 -28 11 -50 25 -22 14 -44 25 -50 25 -5 0 -10 4 -10 9 0 5 -8 11 -17 14
-18 6 -94 48 -103 57 -3 3 -16 11 -30 18 -46 22 -141 78 -161 95 -10 9 -25 17
-32 17 -6 0 -32 14 -57 30 -25 16 -48 30 -52 30 -4 0 -31 15 -61 33 -135 83
-229 137 -237 137 -4 0 -11 7 -14 16 -4 9 -9 14 -12 11 -4 -3 -24 5 -45 19
-21 13 -41 24 -44 24 -2 0 -29 16 -59 35 -30 19 -58 35 -61 35 -3 0 -24 12
-47 26 -68 43 -142 85 -160 91 -10 3 -18 8 -18 12 0 3 -47 29 -105 56 -57 28
-103 54 -102 60 2 5 -7 15 -19 22 -42 21 -89 48 -94 53 -3 3 -14 10 -25 16
-56 30 -91 50 -95 54 -3 3 -21 13 -40 24 -74 40 -126 70 -152 87 -14 11 -30
19 -35 19 -4 0 -32 16 -61 35 -28 20 -52 33 -52 30 0 -3 -19 7 -42 23 -24 16
-56 36 -73 44 -49 24 -100 53 -105 58 -3 3 -14 10 -25 16 -56 30 -91 50 -95
54 -8 8 -42 28 -80 47 -19 9 -41 23 -48 30 -7 7 -20 13 -28 13 -8 0 -14 4 -14
9 0 5 -8 11 -17 14 -18 6 -94 48 -103 57 -3 3 -14 10 -25 16 -56 30 -91 50
-95 54 -3 3 -21 13 -40 24 -67 36 -125 69 -150 85 -14 10 -36 22 -50 28 -48
21 -109 72 -141 120 -31 45 -34 55 -37 144 -4 80 -1 104 15 141 29 63 75 112
137 142 44 22 67 26 135 26 75 0 140 -16 161 -39 3 -4 14 -11 25 -17 56 -30
91 -50 95 -54 3 -3 14 -10 25 -16 102 -56 141 -78 150 -84 6 -5 31 -20 58 -34
114 -62 136 -75 175 -100 23 -14 44 -26 48 -26 3 0 18 -8 32 -19 28 -19 131
-77 169 -95 13 -6 23 -14 23 -18 0 -5 5 -8 10 -8 6 0 29 -12 51 -26 36 -22 85
-50 154 -88 11 -6 22 -13 25 -16 3 -3 21 -13 40 -24 66 -35 125 -69 135 -76 6
-5 30 -19 55 -32 103 -56 115 -63 120 -68 3 -3 14 -10 25 -16 57 -30 91 -50
95 -54 3 -3 23 -14 45 -25 22 -11 42 -22 45 -25 8 -8 43 -28 80 -47 19 -9 37
-20 40 -23 3 -4 12 -9 20 -13 17 -8 53 -30 60 -37 3 -3 23 -14 45 -25 22 -11
42 -22 45 -25 3 -3 14 -10 25 -16 56 -30 91 -50 95 -54 3 -3 14 -10 25 -16 57
-31 91 -50 95 -54 3 -3 16 -11 30 -18 25 -12 40 -21 135 -77 120 -71 178 -100
243 -125 17 -7 32 -19 32 -27 0 -10 7 -14 18 -11 10 3 23 0 29 -6 6 -6 19 -18
30 -26 19 -15 26 -19 93 -56 19 -10 37 -21 40 -24 9 -9 85 -51 103 -57 9 -3
17 -9 17 -14 0 -5 6 -9 13 -9 6 0 32 -14 57 -30 25 -17 59 -37 75 -44 17 -7
65 -34 108 -60 43 -25 82 -46 85 -46 4 0 18 -9 32 -20 41 -32 56 -19 23 19 -9
11 -30 44 -46 73 -16 29 -36 67 -46 83 -9 17 -18 32 -21 35 -3 3 -17 28 -30
55 -22 44 -73 121 -90 135 -14 11 -19 40 -7 40 7 0 8 3 2 8 -12 8 -28 34 -52
82 -9 19 -19 37 -22 40 -9 7 -28 41 -48 80 -9 19 -20 37 -23 40 -6 4 -30 45
-84 145 -6 11 -13 22 -16 25 -3 3 -10 14 -16 25 -30 56 -50 91 -54 95 -3 3
-13 21 -24 40 -10 19 -29 54 -42 78 -13 23 -35 62 -49 88 -14 25 -36 62 -50
82 -14 20 -25 41 -25 45 0 5 -8 21 -19 35 -17 26 -47 78 -87 152 -11 19 -21
37 -24 40 -3 3 -10 14 -16 25 -30 56 -50 91 -54 95 -3 3 -10 14 -16 25 -30 56
-50 91 -54 95 -10 10 -30 45 -47 83 -10 20 -21 37 -25 37 -5 0 -8 6 -8 14 0 8
-6 21 -13 28 -7 7 -21 29 -30 48 -20 40 -39 73 -48 80 -3 3 -13 21 -23 40 -9
19 -23 44 -29 55 -27 45 -111 193 -132 231 -13 22 -35 59 -49 82 -14 23 -26
44 -26 48 0 3 -8 18 -19 32 -17 26 -47 78 -87 152 -11 19 -21 37 -24 40 -3 3
-10 14 -16 25 -32 60 -50 91 -55 95 -5 4 -17 30 -24 50 -1 3 -4 12 -7 20 -27
73 -31 103 -20 134 7 18 12 40 12 49 0 25 47 107 78 136 15 14 46 34 68 45 21
10 47 22 56 27 23 12 143 12 166 0 9 -5 31 -15 47 -22 36 -16 135 -108 135
-126 0 -7 4 -13 9 -13 5 0 11 -8 14 -17 6 -18 28 -58 82 -148 58 -97 76 -130
82 -147 3 -10 10 -18 16 -18 6 0 7 -3 4 -6 -4 -4 2 -19 12 -33 11 -15 31 -48
45 -74 14 -26 37 -67 50 -90 13 -24 36 -62 50 -85 14 -23 26 -44 26 -47 0 -2
16 -29 35 -59 19 -30 35 -60 35 -66 0 -5 3 -10 8 -10 4 0 16 -19 27 -43 11
-23 22 -44 25 -47 3 -3 10 -14 16 -25 30 -56 50 -91 54 -95 8 -8 28 -43 47
-80 9 -19 19 -37 22 -40 10 -9 30 -43 48 -82 10 -21 21 -38 25 -38 5 0 8 -6 8
-14 0 -8 6 -21 13 -28 6 -8 17 -23 23 -33 39 -73 50 -91 54 -95 3 -3 13 -21
24 -40 32 -60 62 -113 101 -180 21 -36 48 -83 60 -106 13 -22 35 -59 49 -82
14 -23 26 -44 26 -48 0 -3 8 -18 19 -32 15 -23 39 -64 95 -167 6 -11 13 -22
16 -25 3 -3 10 -14 16 -25 30 -56 50 -91 54 -95 9 -9 51 -85 57 -102 3 -10 9
-18 14 -18 5 0 9 -6 9 -14 0 -8 6 -21 13 -28 6 -7 25 -39 42 -70 16 -32 32
-58 36 -58 4 0 10 -13 14 -29 3 -16 13 -35 20 -41 8 -7 26 -36 40 -65 13 -29
38 -66 55 -81 16 -16 30 -33 30 -37 0 -16 87 -177 168 -312 28 -48 52 -89 52
-91 0 -2 16 -28 35 -58 19 -30 35 -57 35 -60 0 -3 16 -30 35 -60 19 -30 35
-60 35 -65 0 -6 8 -20 17 -31 20 -23 91 -147 100 -172 3 -10 9 -18 13 -18 4 0
10 -8 13 -17 7 -20 64 -119 87 -150 8 -11 36 -31 62 -46 25 -14 64 -37 87 -51
22 -14 43 -26 46 -26 3 0 24 -12 46 -26 36 -22 85 -50 154 -88 11 -6 22 -13
25 -16 3 -3 14 -10 25 -16 56 -30 91 -50 95 -54 3 -3 21 -13 40 -24 66 -35
125 -69 135 -76 6 -5 44 -26 86 -47 42 -22 87 -50 100 -61 12 -12 29 -22 36
-22 7 0 13 -4 13 -10 0 -5 5 -10 10 -10 6 0 29 -12 52 -26 41 -26 108 -64 163
-92 17 -8 41 -23 55 -33 24 -16 42 -27 168 -95 26 -14 52 -29 57 -34 10 -7 69
-41 135 -76 19 -11 37 -21 40 -24 3 -3 14 -10 25 -16 56 -30 91 -50 95 -54 3
-3 14 -10 25 -16 62 -33 91 -50 95 -55 3 -4 15 -9 28 -13 12 -4 22 -12 22 -17
0 -5 7 -9 15 -9 8 0 15 -4 15 -10 0 -5 7 -10 15 -10 14 0 63 -26 75 -40 3 -3
22 -15 43 -26 73 -36 77 -39 77 -46 0 -5 6 -8 13 -8 7 0 29 -11 49 -25 20 -14
57 -36 83 -50 25 -13 65 -36 90 -50 25 -14 66 -37 93 -51 26 -14 52 -29 57
-34 10 -7 69 -41 135 -76 19 -11 37 -21 40 -24 3 -3 14 -10 25 -16 56 -30 91
-50 95 -54 4 -4 39 -24 95 -54 11 -6 22 -13 25 -16 3 -3 16 -11 30 -18 46 -22
141 -78 161 -95 10 -9 24 -17 30 -17 5 0 35 -16 65 -35 30 -19 58 -35 62 -35
4 0 27 -14 52 -30 25 -16 51 -30 58 -30 9 0 12 407 12 2000 0 1997 0 2020 -30
2050 -3 3 -13 21 -24 40 -37 68 -63 116 -114 204 -29 49 -52 92 -52 95 0 4
-12 22 -28 41 -15 19 -36 53 -47 75 -11 22 -28 48 -37 59 -10 11 -18 25 -18
30 0 6 -14 31 -30 56 -16 25 -30 51 -30 58 0 7 -8 21 -17 32 -10 10 -27 36
-38 57 -11 21 -34 61 -52 90 -18 29 -33 54 -33 57 0 3 -15 29 -32 59 -18 29
-38 61 -45 72 -7 11 -24 43 -39 72 -14 29 -32 57 -40 64 -8 6 -14 15 -14 20 0
5 -16 33 -35 63 -19 30 -35 57 -35 60 0 3 -16 30 -35 60 -19 30 -35 57 -35 60
0 3 -13 28 -30 54 -16 27 -30 56 -30 65 0 9 -6 20 -13 24 -8 4 -22 24 -33 43
-10 19 -21 37 -24 40 -3 3 -10 14 -16 25 -57 104 -80 144 -96 168 -11 15 -17
27 -14 27 3 0 -10 25 -29 55 -19 30 -35 56 -35 59 0 3 -15 29 -33 58 -18 29
-42 70 -52 92 -11 21 -30 48 -42 60 -13 11 -23 26 -23 32 0 6 -7 17 -15 24 -8
7 -15 26 -15 42 0 16 -15 51 -35 81 -19 28 -35 57 -35 64 0 7 -4 13 -9 13 -5
0 -11 8 -14 18 -6 17 -48 93 -57 102 -10 10 -30 45 -47 83 -10 20 -21 37 -25
37 -5 0 -8 6 -8 14 0 7 -7 19 -15 26 -8 7 -15 21 -15 31 0 11 -4 19 -10 19 -5
0 -10 7 -10 15 0 8 -4 15 -9 15 -5 0 -13 10 -17 23 -4 12 -10 24 -13 27 -4 3
-15 21 -24 40 -19 37 -39 72 -47 80 -3 3 -10 14 -16 25 -30 56 -50 91 -54 95
-3 3 -13 21 -24 40 -35 66 -69 125 -76 135 -5 6 -19 30 -33 55 -13 25 -36 65
-50 90 -13 25 -37 67 -51 93 -14 26 -37 65 -51 85 -14 20 -25 42 -25 49 0 7
-4 13 -9 13 -5 0 -11 8 -14 18 -6 18 -48 94 -58 102 -10 10 -39 78 -39 93 0 9
-4 19 -10 22 -5 3 -10 33 -10 65 0 32 5 62 10 65 6 3 10 15 10 25 0 29 54 111
92 141 61 48 105 63 188 63 59 0 88 -6 125 -23 51 -24 145 -113 145 -137 0 -8
3 -14 8 -14 4 0 15 -17 25 -37 10 -21 28 -56 41 -78 13 -22 35 -62 50 -88 14
-26 37 -65 51 -85 14 -20 25 -41 25 -45 0 -5 8 -21 19 -35 17 -26 47 -78 87
-152 11 -19 21 -37 24 -40 3 -3 10 -14 16 -25 30 -56 50 -91 54 -95 3 -3 10
-14 16 -25 30 -56 50 -91 54 -95 3 -3 10 -14 16 -25 30 -56 50 -91 54 -95 3
-3 14 -22 24 -42 11 -21 24 -38 31 -38 12 0 55 -78 55 -98 0 -7 16 -36 35 -66
19 -30 35 -60 35 -66 0 -5 4 -10 9 -10 5 0 12 -8 15 -17 10 -27 48 -94 74
-130 12 -17 22 -34 22 -37 0 -4 12 -25 26 -47 22 -36 50 -85 88 -154 6 -11 13
-22 16 -25 3 -3 10 -14 16 -25 30 -56 63 -114 82 -145 12 -19 22 -42 22 -51 0
-9 6 -19 13 -22 6 -3 23 -27 37 -53 14 -27 40 -72 58 -101 17 -29 32 -54 32
-57 0 -3 16 -30 35 -60 19 -30 35 -58 35 -61 0 -3 11 -23 25 -45 14 -22 25
-44 25 -50 0 -6 8 -19 18 -30 9 -10 26 -36 37 -57 11 -21 34 -61 52 -90 18
-29 33 -55 33 -58 0 -3 12 -24 27 -48 46 -74 83 -145 83 -161 0 -9 4 -16 9
-16 5 0 24 -25 41 -56 18 -30 34 -53 37 -51 2 3 4 878 3 1946 0 1166 3 1948 9
1958 5 10 17 37 26 60 10 23 27 50 39 61 11 11 29 30 38 42 9 12 38 33 65 46
60 29 188 33 249 8z m4074 -8724 c0 -5 6 -7 13 -4 8 3 20 -2 27 -10 7 -9 16
-13 21 -10 5 3 9 -1 9 -9 0 -9 9 -12 31 -9 l30 4 -15 -38 c-33 -82 -203 -211
-536 -409 -304 -180 -414 -248 -520 -318 -108 -73 -593 -421 -644 -464 -16
-13 -38 -23 -50 -21 -12 1 -40 -7 -64 -20 -23 -12 -42 -19 -42 -16 0 4 -6 1
-13 -5 -17 -14 -134 -8 -165 8 -12 6 -26 9 -31 6 -5 -3 -22 0 -38 6 -15 6 -29
9 -29 7 -1 -2 -11 6 -23 16 -12 11 -21 16 -21 12 0 -4 -18 7 -40 24 -22 17
-40 38 -40 46 0 9 -4 12 -10 9 -5 -3 -10 -2 -10 3 0 5 -3 23 -6 40 -5 26 0 37
36 76 23 25 76 67 118 94 115 73 447 262 460 262 7 0 12 5 12 12 0 6 3 9 6 5
3 -3 55 23 114 58 60 34 111 60 114 57 3 -3 6 1 6 8 0 7 2 11 5 8 3 -3 173 91
378 209 205 118 381 219 392 223 26 10 155 69 176 80 9 5 34 12 55 16 22 4 55
14 74 22 54 22 220 39 220 22z m-8223 -30 c21 -7 43 -17 50 -22 6 -5 17 -8 25
-7 7 2 40 -7 73 -19 62 -23 266 -121 275 -132 6 -7 474 -277 559 -323 30 -16
123 -68 207 -117 84 -49 155 -86 158 -82 3 3 6 0 6 -6 0 -7 7 -12 15 -12 8 0
15 -4 15 -8 0 -5 6 -9 13 -9 6 0 51 -23 99 -51 47 -27 89 -48 92 -44 3 3 6 0
6 -6 0 -7 5 -12 12 -12 23 0 244 -139 286 -179 38 -38 41 -43 37 -88 -3 -43
-9 -53 -51 -90 -26 -23 -50 -41 -52 -38 -3 2 -16 -2 -31 -9 -14 -7 -31 -11
-38 -9 -7 2 -22 -1 -35 -8 -29 -16 -139 -21 -155 -7 -7 6 -13 8 -13 5 0 -3
-21 3 -46 14 -25 12 -55 19 -65 16 -10 -3 -21 -1 -24 3 -8 13 -522 384 -645
467 -106 70 -216 137 -520 318 -304 181 -490 317 -525 386 -20 38 -19 40 11
29 33 -13 34 -13 28 5 -4 8 -1 15 5 15 6 0 11 6 11 14 0 8 10 17 23 19 39 7
154 -1 194 -13z m1298 -2560 c-3 -5 -27 -10 -53 -10 -34 0 -43 3 -32 10 20 13
93 13 85 0z m3825 -321 c42 -15 742 -420 783 -454 18 -14 66 -52 107 -84 41
-32 95 -78 121 -102 25 -24 56 -54 70 -65 30 -27 107 -118 134 -158 39 -59 64
-101 75 -126 5 -14 23 -33 38 -43 61 -42 243 -507 292 -747 45 -220 11 -338
-107 -371 -66 -18 -174 5 -296 65 -217 106 -395 256 -503 421 -106 162 -231
276 -494 451 -58 39 -133 87 -166 107 -38 23 -66 48 -73 65 -7 15 -22 39 -34
53 -79 89 -126 315 -127 608 0 253 21 343 90 378 31 16 48 16 90 2z m-2143
-43 c49 -53 56 -110 50 -406 -4 -186 -10 -271 -22 -312 -8 -32 -22 -82 -30
-110 -25 -93 -61 -169 -95 -198 -3 -3 -10 -15 -15 -27 -6 -12 -66 -58 -134
-103 -276 -182 -405 -298 -512 -460 -75 -113 -135 -179 -241 -261 -218 -168
-447 -262 -562 -229 -117 32 -151 151 -106 370 48 237 242 731 310 790 16 14
42 51 59 82 39 76 91 146 169 231 48 52 229 205 283 239 14 9 33 24 42 32 21
21 634 377 677 393 49 18 90 9 127 -31z m3046 -5509 c11 -11 28 -39 61 -102 6
-11 16 -23 21 -27 6 -4 6 -8 2 -8 -4 0 4 -17 18 -37 14 -21 25 -41 25 -46 0
-4 16 -31 35 -60 19 -28 35 -55 35 -59 0 -4 16 -32 35 -62 19 -30 35 -58 35
-61 0 -4 8 -19 19 -33 17 -26 47 -78 87 -152 11 -19 21 -37 24 -40 8 -8 28
-43 47 -80 9 -19 19 -37 22 -40 9 -7 28 -41 48 -80 9 -19 21 -38 26 -41 12 -8
22 -163 12 -186 -4 -10 -9 -24 -11 -31 -8 -39 -48 -93 -99 -134 -66 -54 -104
-63 -219 -56 -57 4 -80 10 -116 34 -50 32 -100 83 -100 102 0 6 -3 12 -8 12
-7 0 -10 4 -46 77 -11 21 -22 40 -25 43 -9 8 -28 40 -57 98 -15 30 -32 59 -38
66 -6 6 -16 21 -22 31 -41 77 -50 91 -57 96 -5 3 -9 10 -9 15 0 10 -35 73 -80
145 -15 25 -28 49 -28 52 0 4 -16 31 -35 61 -19 30 -35 57 -35 60 0 3 -16 31
-36 61 -19 31 -34 63 -32 71 2 8 17 24 35 35 l31 20 32 -46 c17 -25 29 -45 26
-45 -3 0 10 -25 29 -55 19 -30 35 -56 35 -59 0 -5 20 -39 77 -131 7 -11 20
-36 30 -55 9 -19 19 -37 22 -40 9 -7 28 -41 48 -80 9 -19 20 -37 24 -40 3 -3
19 -30 35 -60 16 -30 32 -57 35 -60 5 -4 30 -48 83 -145 6 -11 13 -22 16 -25
3 -3 13 -21 24 -40 21 -39 60 -80 76 -80 5 0 10 -4 10 -8 0 -4 23 -13 51 -19
149 -30 282 113 235 252 -15 42 -35 84 -46 95 -3 3 -10 14 -16 25 -30 56 -50
91 -54 95 -3 3 -13 21 -24 40 -10 19 -30 55 -44 80 -13 25 -36 65 -49 90 -14
25 -28 50 -33 55 -7 10 -41 69 -76 135 -11 19 -21 37 -24 40 -6 6 -26 42 -49
85 -9 16 -18 32 -21 35 -9 9 -51 85 -57 103 -3 9 -9 17 -14 17 -5 0 -9 5 -9
12 0 6 -7 20 -17 30 -9 10 -14 20 -12 21 10 8 74 47 77 47 2 0 9 -6 15 -13z"/>
<path d="M17727 12573 c-17 -17 -2 -85 55 -250 57 -163 75 -203 93 -203 4 0
25 -13 48 -28 23 -16 56 -36 72 -44 49 -24 100 -53 105 -58 4 -4 39 -24 95
-54 11 -6 22 -13 25 -16 8 -8 43 -28 80 -47 19 -9 37 -20 40 -24 3 -3 15 -9
28 -13 12 -4 22 -12 22 -17 0 -5 7 -9 15 -9 8 0 15 -4 15 -10 0 -5 8 -10 19
-10 10 0 24 -7 31 -15 7 -8 19 -15 26 -15 8 0 14 -4 14 -9 0 -5 8 -11 18 -14
17 -6 93 -48 102 -57 3 -3 16 -11 30 -17 92 -45 120 -74 166 -173 4 -8 10 -17
14 -20 3 -3 14 -21 23 -40 20 -39 39 -73 48 -80 3 -3 14 -22 25 -43 36 -73 39
-77 46 -77 5 0 8 -5 8 -10 0 -6 11 -28 25 -50 14 -22 23 -40 20 -40 -3 0 7
-19 23 -42 16 -24 37 -61 48 -83 10 -22 24 -46 31 -53 7 -7 13 -18 13 -24 0
-6 16 -32 35 -58 19 -26 35 -55 35 -64 0 -9 4 -16 9 -16 5 0 11 -8 14 -17 6
-18 48 -94 57 -103 3 -3 14 -23 25 -45 11 -22 23 -41 28 -43 4 -2 7 -10 7 -18
0 -8 3 -14 8 -14 4 0 16 -19 27 -43 11 -23 22 -44 25 -47 3 -3 14 -22 25 -42
11 -21 23 -38 27 -38 5 0 8 -9 8 -20 0 -11 4 -20 9 -20 5 0 11 -8 14 -17 6
-20 49 -95 58 -103 3 -3 9 -12 13 -20 4 -8 22 -42 41 -75 18 -33 42 -76 52
-95 10 -19 20 -37 23 -40 8 -8 28 -43 47 -80 9 -19 20 -37 23 -40 4 -3 20 -30
36 -60 16 -30 32 -57 35 -60 3 -3 14 -23 25 -45 10 -22 20 -42 23 -45 8 -7 29
-41 38 -60 4 -8 21 -37 38 -65 17 -27 37 -63 45 -80 8 -16 21 -36 28 -43 6 -7
12 -20 12 -28 0 -8 4 -14 9 -14 5 0 11 -8 14 -17 6 -18 48 -94 57 -103 4 -4
24 -39 54 -95 6 -11 13 -22 16 -25 3 -3 13 -21 24 -40 10 -19 29 -54 42 -77
13 -24 36 -64 50 -90 14 -27 29 -52 34 -58 7 -10 41 -69 76 -135 11 -19 21
-37 24 -40 6 -6 26 -42 49 -85 9 -16 18 -32 21 -35 8 -8 28 -43 47 -80 9 -19
19 -37 22 -40 9 -7 28 -41 48 -80 9 -19 19 -37 22 -40 9 -7 28 -40 48 -80 9
-19 23 -41 30 -48 7 -7 13 -20 13 -28 0 -8 3 -14 8 -14 4 0 15 -17 25 -37 17
-38 37 -73 47 -83 4 -4 24 -39 54 -95 6 -11 15 -23 19 -26 5 -3 9 -10 9 -15 1
-29 115 -204 133 -204 8 0 15 -4 15 -9 0 -5 23 -14 51 -21 94 -23 178 8 226
82 33 53 35 156 4 209 -11 19 -28 50 -38 69 -9 19 -20 37 -24 40 -3 3 -19 30
-35 60 -16 30 -32 57 -35 60 -5 4 -30 48 -83 145 -6 11 -13 22 -16 25 -4 4
-24 39 -54 95 -6 11 -13 22 -16 25 -3 3 -13 21 -24 40 -10 19 -29 54 -42 78
-13 23 -35 62 -48 85 -13 24 -36 62 -50 85 -14 23 -26 44 -26 48 0 3 -8 18
-19 32 -17 26 -47 78 -87 152 -11 19 -21 37 -24 40 -8 8 -28 43 -47 80 -9 19
-19 37 -22 40 -9 7 -28 40 -48 80 -9 19 -22 40 -29 47 -6 6 -23 35 -38 65 -29
58 -48 90 -57 98 -3 3 -13 21 -22 40 -19 37 -39 72 -47 80 -3 3 -12 19 -21 35
-29 56 -44 80 -54 87 -5 4 -6 8 -2 8 4 0 -4 17 -18 37 -14 21 -25 41 -25 46 0
5 -13 27 -28 50 -16 23 -36 56 -44 72 -24 49 -53 100 -58 105 -6 6 -26 42 -49
85 -9 16 -18 32 -21 35 -4 4 -24 39 -54 95 -6 11 -13 22 -16 25 -8 8 -28 43
-47 80 -9 19 -19 37 -22 40 -10 9 -30 43 -48 83 -10 20 -21 37 -25 37 -5 0 -8
6 -8 14 0 8 -6 21 -13 28 -7 7 -21 29 -30 48 -20 40 -39 73 -48 80 -3 3 -14
22 -25 43 -36 73 -39 77 -46 77 -5 0 -8 6 -8 13 0 6 -9 23 -20 37 -11 14 -20
31 -20 38 0 7 -13 32 -29 55 -15 23 -36 60 -47 82 -10 22 -21 42 -24 45 -4 3
-19 28 -34 55 -16 28 -35 58 -44 68 -23 26 -7 32 26 8 17 -12 35 -21 41 -21 6
0 11 -4 11 -10 0 -5 6 -10 14 -10 8 0 21 -6 28 -13 7 -7 29 -21 48 -30 40 -20
73 -39 80 -48 3 -3 21 -13 40 -22 37 -19 72 -39 80 -47 3 -3 21 -13 40 -24 66
-35 125 -69 135 -76 6 -5 30 -19 55 -33 25 -13 67 -37 95 -52 27 -15 61 -35
75 -44 14 -10 39 -25 55 -33 48 -24 100 -53 105 -58 4 -4 39 -24 95 -54 11 -6
22 -13 25 -16 4 -4 39 -24 95 -54 11 -6 22 -13 25 -16 3 -3 21 -13 40 -24 75
-40 125 -69 130 -76 3 -3 21 -14 40 -23 39 -20 73 -39 80 -48 3 -3 23 -13 45
-23 22 -11 42 -22 45 -25 3 -4 31 -20 62 -36 32 -17 58 -33 58 -37 0 -3 14 -9
30 -13 17 -4 30 -10 30 -15 0 -4 26 -20 57 -36 32 -16 64 -35 71 -42 8 -7 35
-23 61 -35 25 -11 52 -27 59 -34 7 -7 20 -13 28 -13 8 0 14 -4 14 -9 0 -5 8
-11 18 -14 17 -6 93 -48 102 -57 4 -4 39 -24 95 -54 11 -6 22 -13 25 -16 3 -3
19 -12 35 -21 43 -23 79 -43 85 -49 3 -3 21 -13 40 -24 66 -35 125 -69 135
-76 6 -5 30 -19 55 -33 83 -45 145 -81 150 -86 3 -3 28 -18 55 -32 79 -41 138
-75 183 -103 23 -14 45 -26 50 -26 4 0 13 -5 20 -12 12 -12 99 -63 162 -94 19
-10 37 -21 40 -24 3 -4 12 -10 20 -13 8 -4 33 -19 55 -33 22 -14 52 -30 68
-37 15 -6 27 -15 27 -19 0 -4 6 -8 14 -8 8 0 16 -3 18 -7 2 -5 21 -17 43 -28
22 -11 42 -22 45 -25 4 -4 38 -24 95 -54 11 -6 22 -13 25 -16 3 -3 21 -13 40
-24 72 -39 126 -70 160 -93 19 -12 39 -23 43 -23 5 0 23 -10 40 -22 25 -18 45
-22 102 -23 63 0 75 3 118 33 26 18 47 39 47 47 0 8 4 15 8 15 13 0 32 64 32
108 0 66 -49 140 -120 178 -19 11 -41 25 -48 32 -7 6 -20 12 -28 12 -8 0 -14
3 -14 8 0 4 -17 15 -37 25 -40 18 -74 38 -83 48 -3 3 -21 13 -40 22 -37 19
-72 39 -80 47 -3 3 -21 13 -40 24 -66 35 -125 69 -135 76 -5 5 -31 20 -57 34
-126 68 -144 79 -168 95 -14 10 -38 25 -55 33 -48 24 -100 53 -105 58 -4 4
-39 24 -95 54 -11 6 -22 13 -25 16 -4 4 -39 24 -95 54 -11 6 -22 13 -25 16 -3
3 -21 13 -40 24 -72 38 -125 69 -130 75 -3 3 -30 19 -60 35 -30 16 -57 32 -60
35 -3 4 -23 15 -45 25 -22 11 -42 22 -45 25 -3 3 -30 19 -60 35 -30 16 -57 32
-60 36 -7 9 -43 24 -52 22 -5 -1 -8 2 -8 6 0 5 -26 22 -57 38 -32 16 -60 32
-63 35 -3 4 -30 19 -60 35 -30 16 -61 35 -68 42 -7 6 -20 12 -28 12 -8 0 -14
4 -14 9 0 5 -8 11 -17 14 -18 6 -94 48 -103 57 -4 4 -39 24 -95 54 -11 6 -22
13 -25 16 -4 4 -39 24 -95 54 -11 6 -22 13 -25 16 -3 3 -21 13 -40 24 -66 35
-125 69 -135 76 -5 5 -30 19 -55 33 -25 13 -74 41 -110 62 -69 41 -123 71
-193 109 -24 13 -62 36 -85 50 -23 14 -44 26 -47 26 -4 0 -67 37 -130 78 -11
6 -29 16 -40 22 -11 5 -38 21 -60 35 -22 14 -48 28 -57 31 -10 4 -18 10 -18
15 0 5 -9 9 -20 9 -11 0 -20 4 -20 10 0 5 -11 12 -25 16 -14 3 -25 10 -25 15
0 5 -6 9 -14 9 -8 0 -16 3 -18 8 -1 4 -21 16 -43 27 -22 11 -42 22 -45 25 -4
4 -38 24 -95 54 -11 6 -22 13 -25 16 -3 3 -19 12 -35 21 -43 22 -79 43 -85 49
-9 9 -84 50 -142 78 -32 15 -58 29 -58 32 0 3 854 4 1897 2 1261 -1 1900 1
1907 8 5 5 17 10 26 10 28 0 110 89 110 120 0 10 5 22 10 25 6 3 10 21 10 40
0 19 -4 37 -10 40 -5 3 -10 15 -10 25 0 32 -82 120 -112 120 -9 0 -20 5 -23
10 -4 7 -769 10 -2261 10 -2119 0 -2256 1 -2282 17 -15 10 -29 20 -32 23 -3 3
-21 14 -40 24 -19 9 -66 35 -105 57 -38 21 -81 45 -95 51 -14 7 -27 15 -30 18
-8 8 -41 28 -80 47 -19 9 -40 22 -47 29 -6 6 -35 23 -65 38 -55 28 -90 48 -98
56 -3 3 -14 10 -25 16 -56 30 -91 50 -95 54 -4 4 -39 24 -95 54 -11 6 -22 13
-25 16 -15 15 -182 99 -197 100 -7 0 -13 3 -13 8 0 9 -144 14 -153 5z"/>
</g>
</svg>
